<?xml version="1.0" encoding="UTF-8" standalone="no"?>
<svg xmlns:rdf="http://www.w3.org/1999/02/22-rdf-syntax-ns#" style="shape-rendering:geometricPrecision;text-rendering:geometricPrecision;image-rendering:optimizeQuality" xmlns="http://www.w3.org/2000/svg" version="1.1" xml:space="preserve" height="5.9194in" width="5.9194in" y="8.4597in" x="-7.2097in" xmlns:cc="http://creativecommons.org/ns#" xmlns:dc="http://purl.org/dc/elements/1.1/" viewBox="-7210 0 5920 5920"><title>Compass card</title><metadata><rdf:RDF><cc:Work rdf:about=""><dc:format>image/svg+xml</dc:format><dc:type rdf:resource="http://purl.org/dc/dcmitype/StillImage"/><dc:title>Compass card</dc:title><cc:license rdf:resource="http://creativecommons.org/licenses/by-sa/3.0/"/><dc:creator><cc:Agent><dc:title>David Nelson (https://commons.wikimedia.org/wiki/User:Denelson83)</dc:title></cc:Agent></dc:creator><dc:date>2007-05-18</dc:date><dc:source>https://commons.wikimedia.org/wiki/File:Compass_Card.png</dc:source><dc:publisher><cc:Agent><dc:title>David Nelson</dc:title></cc:Agent></dc:publisher></cc:Work><cc:License rdf:about="http://creativecommons.org/licenses/by-sa/3.0/"><cc:permits rdf:resource="http://creativecommons.org/ns#Reproduction"/><cc:permits rdf:resource="http://creativecommons.org/ns#Distribution"/><cc:requires rdf:resource="http://creativecommons.org/ns#Notice"/><cc:requires rdf:resource="http://creativecommons.org/ns#Attribution"/><cc:permits rdf:resource="http://creativecommons.org/ns#DerivativeWorks"/><cc:requires rdf:resource="http://creativecommons.org/ns#ShareAlike"/></cc:License></rdf:RDF></metadata>
 <defs><style type="text/css">
    .str2 {stroke:#000000;stroke-width:3}
    .str0 {stroke:#000000;stroke-width:14}
    .str1 {stroke:#000000;stroke-width:28}
    .fil0 {fill:none}
    .fil2 {fill:#000000}
    .fil1 {fill:#FFFFFF}
    .fil37 {fill:#0011FF}
    .fil16 {fill:#002080}
    .fil15 {fill:#0040FF}
    .fil36 {fill:#006FFF}
    .fil14 {fill:#008020}
    .fil10 {fill:#008080}
    .fil23 {fill:#009DFF}
    .fil35 {fill:#00D0FF}
    .fil32 {fill:#00FF11}
    .fil13 {fill:#00FF40}
    .fil33 {fill:#00FF6E}
    .fil22 {fill:#00FFA1}
    .fil34 {fill:#00FFD0}
    .fil9 {fill:#00FFFF}
    .fil21 {fill:#1EFF00}
    .fil24 {fill:#2200FF}
    .fil6 {fill:#400080}
    .fil8 {fill:#408000}
    .fil38 {fill:#5100FF}
    .fil31 {fill:#51FF00}
    .fil4 {fill:#800000}
    .fil18 {fill:#800060}
    .fil5 {fill:#8000FF}
    .fil12 {fill:#806000}
    .fil7 {fill:#80FF00}
    .fil39 {fill:#AE00FF}
    .fil30 {fill:#AEFF00}
    .fil19 {fill:#DDFF00}
    .fil25 {fill:#E100FF}
    .fil3 {fill:#FF0000}
    .fil42 {fill:#FF002F}
    .fil26 {fill:#FF005E}
    .fil41 {fill:#FF0091}
    .fil17 {fill:#FF00BF}
    .fil40 {fill:#FF00EE}
    .fil27 {fill:#FF2F00}
    .fil20 {fill:#FF6200}
    .fil28 {fill:#FF9100}
    .fil11 {fill:#FFBF00}
    .fil29 {fill:#FFEE00}
  </style></defs>
  <path d="m-4250 2960h-2953c0-1626 1327-2953 2953-2953s2953 1327 2953 2953h-2953z" class="fil0 str0"/>
  <path d="m-4250 2960h2953c0 1626-1327 2953-2953 2953s-2953-1327-2953-2953h2953z" class="fil0 str0"/>
  <ellipse rx="2854" ry="2854" class="fil1 str0" cy="2960" cx="-4250"/>
  <path d="m-4250 106v-99" class="fil0 str1"/>
  <path d="m-4746 149l-17-97" class="fil0 str1"/>
  <path d="m-5226 278l-34-93" class="fil0 str1"/>
  <path d="m-5677 488l-49-85" class="fil0 str1"/>
  <path d="m-6085 773l-63-75" class="fil0 str1"/>
  <path d="m-6437 1125l-75-63" class="fil0 str1"/>
  <path d="m-6722 1533l-85-49" class="fil0 str1"/>
  <path d="m-6932 1984l-93-34" class="fil0 str1"/>
  <path d="m-7061 2464l-97-17" class="fil0 str1"/>
  <path d="m-7104 2960h-99" class="fil0 str1"/>
  <path d="m-7061 3456l-97 17" class="fil0 str1"/>
  <path d="m-6932 3936l-93 34" class="fil0 str1"/>
  <path d="m-6722 4387l-85 49" class="fil0 str1"/>
  <path d="m-6437 4795l-75 63" class="fil0 str1"/>
  <path d="m-6085 5147l-63 75" class="fil0 str1"/>
  <path d="m-5677 5432l-49 85" class="fil0 str1"/>
  <path d="m-5226 5642l-34 93" class="fil0 str1"/>
  <path d="m-4746 5771l-17 97" class="fil0 str1"/>
  <path d="m-4250 5814v99" class="fil0 str1"/>
  <path d="m-3754 5771l17 97" class="fil0 str1"/>
  <path d="m-3274 5642l34 93" class="fil0 str1"/>
  <path d="m-2823 5432l49 85" class="fil0 str1"/>
  <path d="m-2415 5147l63 75" class="fil0 str1"/>
  <path d="m-2063 4795l75 63" class="fil0 str1"/>
  <path d="m-1778 4387l85 49" class="fil0 str1"/>
  <path d="m-1568 3936l93 34" class="fil0 str1"/>
  <path d="m-1439 3456l97 17" class="fil0 str1"/>
  <path d="m-1396 2960h99" class="fil0 str1"/>
  <path d="m-1439 2464l97-17" class="fil0 str1"/>
  <path d="m-1568 1984l93-34" class="fil0 str1"/>
  <path d="m-1778 1533l85-49" class="fil0 str1"/>
  <path d="m-2063 1125l75-63" class="fil0 str1"/>
  <path d="m-2415 773l63-75" class="fil0 str1"/>
  <path d="m-2823 488l49-85" class="fil0 str1"/>
  <path d="m-3274 278l34-93" class="fil0 str1"/>
  <path d="m-3754 149l17-97" class="fil0 str1"/>
  <path d="m-4300 106l-2-98" class="fil0 str2"/>
  <path d="m-5720 513l-51-84" class="fil0 str2"/>
  <path d="m-6746 1576l-87-48" class="fil0 str2"/>
  <path d="m-7104 3010l-98 2" class="fil0 str2"/>
  <path d="m-6697 4430l-84 51" class="fil0 str2"/>
  <path d="m-5634 5456l-48 87" class="fil0 str2"/>
  <path d="m-4200 5814l2 98" class="fil0 str2"/>
  <path d="m-2780 5407l51 84" class="fil0 str2"/>
  <path d="m-1754 4344l87 48" class="fil0 str2"/>
  <path d="m-1396 2910l98-2" class="fil0 str2"/>
  <path d="m-1803 1490l84-51" class="fil0 str2"/>
  <path d="m-2866 464l48-87" class="fil0 str2"/>
  <path d="m-4795 158l-18-97" class="fil0 str2"/>
  <path d="m-6123 806l-64-74" class="fil0 str2"/>
  <path d="m-6949 2031l-93-32" class="fil0 str2"/>
  <path d="m-7052 3505l-97 18" class="fil0 str2"/>
  <path d="m-6404 4833l-74 64" class="fil0 str2"/>
  <path d="m-5179 5659l-32 93" class="fil0 str2"/>
  <path d="m-3705 5762l18 97" class="fil0 str2"/>
  <path d="m-2377 5114l64 74" class="fil0 str2"/>
  <path d="m-1551 3889l93 32" class="fil0 str2"/>
  <path d="m-1448 2415l97-18" class="fil0 str2"/>
  <path d="m-2096 1087l74-64" class="fil0 str2"/>
  <path d="m-3321 261l32-93" class="fil0 str2"/>
  <path d="m-5273 295l-35-92" class="fil0 str2"/>
  <path d="m-6468 1164l-77-62" class="fil0 str2"/>
  <path d="m-7069 2513l-97-15" class="fil0 str2"/>
  <path d="m-6915 3983l-92 35" class="fil0 str2"/>
  <path d="m-6046 5178l-62 77" class="fil0 str2"/>
  <path d="m-4697 5779l-15 97" class="fil0 str2"/>
  <path d="m-3227 5625l35 92" class="fil0 str2"/>
  <path d="m-2032 4756l77 62" class="fil0 str2"/>
  <path d="m-1431 3407l97 15" class="fil0 str2"/>
  <path d="m-1585 1937l92-35" class="fil0 str2"/>
  <path d="m-2454 742l62-77" class="fil0 str2"/>
  <path d="m-3803 141l15-97" class="fil0 str2"/>
  <path d="m-4350 107l-3-98" class="fil0 str2"/>
  <path d="m-5763 539l-52-83" class="fil0 str2"/>
  <path d="m-6770 1620l-87-46" class="fil0 str2"/>
  <path d="m-7103 3060l-98 3" class="fil0 str2"/>
  <path d="m-6671 4473l-83 52" class="fil0 str2"/>
  <path d="m-5590 5480l-46 87" class="fil0 str2"/>
  <path d="m-4150 5813l3 98" class="fil0 str2"/>
  <path d="m-2737 5381l52 83" class="fil0 str2"/>
  <path d="m-1730 4300l87 46" class="fil0 str2"/>
  <path d="m-1397 2860l98-3" class="fil0 str2"/>
  <path d="m-1829 1447l83-52" class="fil0 str2"/>
  <path d="m-2910 440l46-87" class="fil0 str2"/>
  <path d="m-4843 168l-21-96" class="fil0 str2"/>
  <path d="m-6160 839l-66-73" class="fil0 str2"/>
  <path d="m-6965 2078l-93-30" class="fil0 str2"/>
  <path d="m-7042 3553l-96 21" class="fil0 str2"/>
  <path d="m-6371 4870l-73 66" class="fil0 str2"/>
  <path d="m-5132 5675l-30 93" class="fil0 str2"/>
  <path d="m-3657 5752l21 96" class="fil0 str2"/>
  <path d="m-2340 5081l66 73" class="fil0 str2"/>
  <path d="m-1535 3842l93 30" class="fil0 str2"/>
  <path d="m-1458 2367l96-21" class="fil0 str2"/>
  <path d="m-2129 1050l73-66" class="fil0 str2"/>
  <path d="m-3368 245l30-93" class="fil0 str2"/>
  <path d="m-5319 314l-37-92" class="fil0 str2"/>
  <path d="m-6499 1203l-78-61" class="fil0 str2"/>
  <path d="m-7077 2563l-97-14" class="fil0 str2"/>
  <path d="m-6896 4029l-92 37" class="fil0 str2"/>
  <path d="m-6007 5209l-61 78" class="fil0 str2"/>
  <path d="m-4647 5787l-14 97" class="fil0 str2"/>
  <path d="m-3181 5606l37 92" class="fil0 str2"/>
  <path d="m-2001 4717l78 61" class="fil0 str2"/>
  <path d="m-1423 3357l97 14" class="fil0 str2"/>
  <path d="m-1604 1891l92-37" class="fil0 str2"/>
  <path d="m-2493 711l61-78" class="fil0 str2"/>
  <path d="m-3853 133l14-97" class="fil0 str2"/>
  <path d="m-4399 110l-6-99" class="fil0 str2"/>
  <path d="m-5805 566l-53-82" class="fil0 str2"/>
  <path d="m-6793 1664l-88-45" class="fil0 str2"/>
  <path d="m-7100 3109l-99 6" class="fil0 str2"/>
  <path d="m-6644 4515l-82 53" class="fil0 str2"/>
  <path d="m-5546 5503l-45 88" class="fil0 str2"/>
  <path d="m-4101 5810l6 99" class="fil0 str2"/>
  <path d="m-2695 5354l53 82" class="fil0 str2"/>
  <path d="m-1707 4256l88 45" class="fil0 str2"/>
  <path d="m-1400 2811l99-6" class="fil0 str2"/>
  <path d="m-1856 1405l82-53" class="fil0 str2"/>
  <path d="m-2954 417l45-88" class="fil0 str2"/>
  <path d="m-4892 179l-22-96" class="fil0 str2"/>
  <path d="m-6197 872l-67-72" class="fil0 str2"/>
  <path d="m-6980 2125l-94-28" class="fil0 str2"/>
  <path d="m-7031 3602l-96 22" class="fil0 str2"/>
  <path d="m-6338 4907l-72 67" class="fil0 str2"/>
  <path d="m-5085 5690l-28 94" class="fil0 str2"/>
  <path d="m-3608 5741l22 96" class="fil0 str2"/>
  <path d="m-2303 5048l67 72" class="fil0 str2"/>
  <path d="m-1520 3795l94 28" class="fil0 str2"/>
  <path d="m-1469 2318l96-22" class="fil0 str2"/>
  <path d="m-2162 1013l72-67" class="fil0 str2"/>
  <path d="m-3415 230l28-94" class="fil0 str2"/>
  <path d="m-5365 333l-39-91" class="fil0 str2"/>
  <path d="m-6530 1242l-78-59" class="fil0 str2"/>
  <path d="m-7083 2612l-98-12" class="fil0 str2"/>
  <path d="m-6877 4075l-91 39" class="fil0 str2"/>
  <path d="m-5968 5240l-59 78" class="fil0 str2"/>
  <path d="m-4598 5793l-12 98" class="fil0 str2"/>
  <path d="m-3135 5587l39 91" class="fil0 str2"/>
  <path d="m-1970 4678l78 59" class="fil0 str2"/>
  <path d="m-1417 3308l98 12" class="fil0 str2"/>
  <path d="m-1623 1845l91-39" class="fil0 str2"/>
  <path d="m-2532 680l59-78" class="fil0 str2"/>
  <path d="m-3902 127l12-98" class="fil0 str2"/>
  <path d="m-4449 113l-7-99" class="fil0 str2"/>
  <path d="m-5846 594l-55-82" class="fil0 str2"/>
  <path d="m-6815 1709l-89-43" class="fil0 str2"/>
  <path d="m-7097 3159l-99 7" class="fil0 str2"/>
  <path d="m-6616 4556l-82 55" class="fil0 str2"/>
  <path d="m-5501 5525l-43 89" class="fil0 str2"/>
  <path d="m-4051 5807l7 99" class="fil0 str2"/>
  <path d="m-2654 5326l55 82" class="fil0 str2"/>
  <path d="m-1685 4211l89 43" class="fil0 str2"/>
  <path d="m-1403 2761l99-7" class="fil0 str2"/>
  <path d="m-1884 1364l82-55" class="fil0 str2"/>
  <path d="m-2999 395l43-89" class="fil0 str2"/>
  <path d="m-4941 190l-23-95" class="fil0 str2"/>
  <path d="m-6233 907l-68-71" class="fil0 str2"/>
  <path d="m-6994 2173l-94-27" class="fil0 str2"/>
  <path d="m-7020 3651l-95 23" class="fil0 str2"/>
  <path d="m-6303 4943l-71 68" class="fil0 str2"/>
  <path d="m-5037 5704l-27 94" class="fil0 str2"/>
  <path d="m-3559 5730l23 95" class="fil0 str2"/>
  <path d="m-2267 5013l68 71" class="fil0 str2"/>
  <path d="m-1506 3747l94 27" class="fil0 str2"/>
  <path d="m-1480 2269l95-23" class="fil0 str2"/>
  <path d="m-2197 977l71-68" class="fil0 str2"/>
  <path d="m-3463 216l27-94" class="fil0 str2"/>
  <path d="m-5411 352l-40-89" class="fil0 str2"/>
  <path d="m-6559 1282l-80-58" class="fil0 str2"/>
  <path d="m-7089 2662l-98-11" class="fil0 str2"/>
  <path d="m-6858 4121l-89 40" class="fil0 str2"/>
  <path d="m-5928 5269l-58 80" class="fil0 str2"/>
  <path d="m-4548 5799l-11 98" class="fil0 str2"/>
  <path d="m-3089 5568l40 89" class="fil0 str2"/>
  <path d="m-1941 4638l80 58" class="fil0 str2"/>
  <path d="m-1411 3258l98 11" class="fil0 str2"/>
  <path d="m-1642 1799l89-40" class="fil0 str2"/>
  <path d="m-2572 651l58-80" class="fil0 str2"/>
  <path d="m-3952 121l11-98" class="fil0 str2"/>
  <path d="m-4499 117l-8-99" class="fil0 str2"/>
  <path d="m-5887 622l-57-81" class="fil0 str2"/>
  <path d="m-6837 1754l-89-42" class="fil0 str2"/>
  <path d="m-7093 3209l-99 8" class="fil0 str2"/>
  <path d="m-6588 4597l-81 57" class="fil0 str2"/>
  <path d="m-5456 5547l-42 89" class="fil0 str2"/>
  <path d="m-4001 5803l8 99" class="fil0 str2"/>
  <path d="m-2613 5298l57 81" class="fil0 str2"/>
  <path d="m-1663 4166l89 42" class="fil0 str2"/>
  <path d="m-1407 2711l99-8" class="fil0 str2"/>
  <path d="m-1912 1323l81-57" class="fil0 str2"/>
  <path d="m-3044 373l42-89" class="fil0 str2"/>
  <path d="m-4989 203l-25-95" class="fil0 str2"/>
  <path d="m-6268 942l-70-70" class="fil0 str2"/>
  <path d="m-7007 2221l-95-25" class="fil0 str2"/>
  <path d="m-7007 3699l-95 25" class="fil0 str2"/>
  <path d="m-6268 4978l-70 70" class="fil0 str2"/>
  <path d="m-4989 5717l-25 95" class="fil0 str2"/>
  <path d="m-3511 5717l25 95" class="fil0 str2"/>
  <path d="m-2232 4978l70 70" class="fil0 str2"/>
  <path d="m-1493 3699l95 25" class="fil0 str2"/>
  <path d="m-1493 2221l95-25" class="fil0 str2"/>
  <path d="m-2232 942l70-70" class="fil0 str2"/>
  <path d="m-3511 203l25-95" class="fil0 str2"/>
  <path d="m-5456 373l-42-89" class="fil0 str2"/>
  <path d="m-6588 1323l-81-57" class="fil0 str2"/>
  <path d="m-7093 2711l-99-8" class="fil0 str2"/>
  <path d="m-6837 4166l-89 42" class="fil0 str2"/>
  <path d="m-5887 5298l-57 81" class="fil0 str2"/>
  <path d="m-4499 5803l-8 99" class="fil0 str2"/>
  <path d="m-3044 5547l42 89" class="fil0 str2"/>
  <path d="m-1912 4597l81 57" class="fil0 str2"/>
  <path d="m-1407 3209l99 8" class="fil0 str2"/>
  <path d="m-1663 1754l89-42" class="fil0 str2"/>
  <path d="m-2613 622l57-81" class="fil0 str2"/>
  <path d="m-4001 117l8-99" class="fil0 str2"/>
  <path d="m-4548 121l-11-98" class="fil0 str2"/>
  <path d="m-5928 651l-58-80" class="fil0 str2"/>
  <path d="m-6858 1799l-89-40" class="fil0 str2"/>
  <path d="m-7089 3258l-98 11" class="fil0 str2"/>
  <path d="m-6559 4638l-80 58" class="fil0 str2"/>
  <path d="m-5411 5568l-40 89" class="fil0 str2"/>
  <path d="m-3952 5799l11 98" class="fil0 str2"/>
  <path d="m-2572 5269l58 80" class="fil0 str2"/>
  <path d="m-1642 4121l89 40" class="fil0 str2"/>
  <path d="m-1411 2662l98-11" class="fil0 str2"/>
  <path d="m-1941 1282l80-58" class="fil0 str2"/>
  <path d="m-3089 352l40-89" class="fil0 str2"/>
  <path d="m-5037 216l-27-94" class="fil0 str2"/>
  <path d="m-6303 977l-71-68" class="fil0 str2"/>
  <path d="m-7020 2269l-95-23" class="fil0 str2"/>
  <path d="m-6994 3747l-94 27" class="fil0 str2"/>
  <path d="m-6233 5013l-68 71" class="fil0 str2"/>
  <path d="m-4941 5730l-23 95" class="fil0 str2"/>
  <path d="m-3463 5704l27 94" class="fil0 str2"/>
  <path d="m-2197 4943l71 68" class="fil0 str2"/>
  <path d="m-1480 3651l95 23" class="fil0 str2"/>
  <path d="m-1506 2173l94-27" class="fil0 str2"/>
  <path d="m-2267 907l68-71" class="fil0 str2"/>
  <path d="m-3559 190l23-95" class="fil0 str2"/>
  <path d="m-5501 395l-43-89" class="fil0 str2"/>
  <path d="m-6616 1364l-82-55" class="fil0 str2"/>
  <path d="m-7097 2761l-99-7" class="fil0 str2"/>
  <path d="m-6815 4211l-89 43" class="fil0 str2"/>
  <path d="m-5846 5326l-55 82" class="fil0 str2"/>
  <path d="m-4449 5807l-7 99" class="fil0 str2"/>
  <path d="m-2999 5525l43 89" class="fil0 str2"/>
  <path d="m-1884 4556l82 55" class="fil0 str2"/>
  <path d="m-1403 3159l99 7" class="fil0 str2"/>
  <path d="m-1685 1709l89-43" class="fil0 str2"/>
  <path d="m-2654 594l55-82" class="fil0 str2"/>
  <path d="m-4051 113l7-99" class="fil0 str2"/>
  <path d="m-4598 127l-12-98" class="fil0 str2"/>
  <path d="m-5968 680l-59-78" class="fil0 str2"/>
  <path d="m-6877 1845l-91-39" class="fil0 str2"/>
  <path d="m-7083 3308l-98 12" class="fil0 str2"/>
  <path d="m-6530 4678l-78 59" class="fil0 str2"/>
  <path d="m-5365 5587l-39 91" class="fil0 str2"/>
  <path d="m-3902 5793l12 98" class="fil0 str2"/>
  <path d="m-2532 5240l59 78" class="fil0 str2"/>
  <path d="m-1623 4075l91 39" class="fil0 str2"/>
  <path d="m-1417 2612l98-12" class="fil0 str2"/>
  <path d="m-1970 1242l78-59" class="fil0 str2"/>
  <path d="m-3135 333l39-91" class="fil0 str2"/>
  <path d="m-5085 230l-28-94" class="fil0 str2"/>
  <path d="m-6338 1013l-72-67" class="fil0 str2"/>
  <path d="m-7031 2318l-96-22" class="fil0 str2"/>
  <path d="m-6980 3795l-94 28" class="fil0 str2"/>
  <path d="m-6197 5048l-67 72" class="fil0 str2"/>
  <path d="m-4892 5741l-22 96" class="fil0 str2"/>
  <path d="m-3415 5690l28 94" class="fil0 str2"/>
  <path d="m-2162 4907l72 67" class="fil0 str2"/>
  <path d="m-1469 3602l96 22" class="fil0 str2"/>
  <path d="m-1520 2125l94-28" class="fil0 str2"/>
  <path d="m-2303 872l67-72" class="fil0 str2"/>
  <path d="m-3608 179l22-96" class="fil0 str2"/>
  <path d="m-5546 417l-45-88" class="fil0 str2"/>
  <path d="m-6644 1405l-82-53" class="fil0 str2"/>
  <path d="m-7100 2811l-99-6" class="fil0 str2"/>
  <path d="m-6793 4256l-88 45" class="fil0 str2"/>
  <path d="m-5805 5354l-53 82" class="fil0 str2"/>
  <path d="m-4399 5810l-6 99" class="fil0 str2"/>
  <path d="m-2954 5503l45 88" class="fil0 str2"/>
  <path d="m-1856 4515l82 53" class="fil0 str2"/>
  <path d="m-1400 3109l99 6" class="fil0 str2"/>
  <path d="m-1707 1664l88-45" class="fil0 str2"/>
  <path d="m-2695 566l53-82" class="fil0 str2"/>
  <path d="m-4101 110l6-99" class="fil0 str2"/>
  <path d="m-4647 133l-14-97" class="fil0 str2"/>
  <path d="m-6007 711l-61-78" class="fil0 str2"/>
  <path d="m-6896 1891l-92-37" class="fil0 str2"/>
  <path d="m-7077 3357l-97 14" class="fil0 str2"/>
  <path d="m-6499 4717l-78 61" class="fil0 str2"/>
  <path d="m-5319 5606l-37 92" class="fil0 str2"/>
  <path d="m-3853 5787l14 97" class="fil0 str2"/>
  <path d="m-2493 5209l61 78" class="fil0 str2"/>
  <path d="m-1604 4029l92 37" class="fil0 str2"/>
  <path d="m-1423 2563l97-14" class="fil0 str2"/>
  <path d="m-2001 1203l78-61" class="fil0 str2"/>
  <path d="m-3181 314l37-92" class="fil0 str2"/>
  <path d="m-5132 245l-30-93" class="fil0 str2"/>
  <path d="m-6371 1050l-73-66" class="fil0 str2"/>
  <path d="m-7042 2367l-96-21" class="fil0 str2"/>
  <path d="m-6965 3842l-93 30" class="fil0 str2"/>
  <path d="m-6160 5081l-66 73" class="fil0 str2"/>
  <path d="m-4843 5752l-21 96" class="fil0 str2"/>
  <path d="m-3368 5675l30 93" class="fil0 str2"/>
  <path d="m-2129 4870l73 66" class="fil0 str2"/>
  <path d="m-1458 3553l96 21" class="fil0 str2"/>
  <path d="m-1535 2078l93-30" class="fil0 str2"/>
  <path d="m-2340 839l66-73" class="fil0 str2"/>
  <path d="m-3657 168l21-96" class="fil0 str2"/>
  <path d="m-5590 440l-46-87" class="fil0 str2"/>
  <path d="m-6671 1447l-83-52" class="fil0 str2"/>
  <path d="m-7103 2860l-98-3" class="fil0 str2"/>
  <path d="m-6770 4300l-87 46" class="fil0 str2"/>
  <path d="m-5763 5381l-52 83" class="fil0 str2"/>
  <path d="m-4350 5813l-3 98" class="fil0 str2"/>
  <path d="m-2910 5480l46 87" class="fil0 str2"/>
  <path d="m-1829 4473l83 52" class="fil0 str2"/>
  <path d="m-1397 3060l98 3" class="fil0 str2"/>
  <path d="m-1730 1620l87-46" class="fil0 str2"/>
  <path d="m-2737 539l52-83" class="fil0 str2"/>
  <path d="m-4150 107l3-98" class="fil0 str2"/>
  <path d="m-4697 141l-15-97" class="fil0 str2"/>
  <path d="m-6046 742l-62-77" class="fil0 str2"/>
  <path d="m-6915 1937l-92-35" class="fil0 str2"/>
  <path d="m-7069 3407l-97 15" class="fil0 str2"/>
  <path d="m-6468 4756l-77 62" class="fil0 str2"/>
  <path d="m-5273 5625l-35 92" class="fil0 str2"/>
  <path d="m-3803 5779l15 97" class="fil0 str2"/>
  <path d="m-2454 5178l62 77" class="fil0 str2"/>
  <path d="m-1585 3983l92 35" class="fil0 str2"/>
  <path d="m-1431 2513l97-15" class="fil0 str2"/>
  <path d="m-2032 1164l77-62" class="fil0 str2"/>
  <path d="m-3227 295l35-92" class="fil0 str2"/>
  <path d="m-5179 261l-32-93" class="fil0 str2"/>
  <path d="m-6404 1087l-74-64" class="fil0 str2"/>
  <path d="m-7052 2415l-97-18" class="fil0 str2"/>
  <path d="m-6949 3889l-93 32" class="fil0 str2"/>
  <path d="m-6123 5114l-64 74" class="fil0 str2"/>
  <path d="m-4795 5762l-18 97" class="fil0 str2"/>
  <path d="m-3321 5659l32 93" class="fil0 str2"/>
  <path d="m-2096 4833l74 64" class="fil0 str2"/>
  <path d="m-1448 3505l97 18" class="fil0 str2"/>
  <path d="m-1551 2031l93-32" class="fil0 str2"/>
  <path d="m-2377 806l64-74" class="fil0 str2"/>
  <path d="m-3705 158l18-97" class="fil0 str2"/>
  <path d="m-5634 464l-48-87" class="fil0 str2"/>
  <path d="m-6697 1490l-84-51" class="fil0 str2"/>
  <path d="m-7104 2910l-98-2" class="fil0 str2"/>
  <path d="m-6746 4344l-87 48" class="fil0 str2"/>
  <path d="m-5720 5407l-51 84" class="fil0 str2"/>
  <path d="m-4300 5814l-2 98" class="fil0 str2"/>
  <path d="m-2866 5456l48 87" class="fil0 str2"/>
  <path d="m-1803 4430l84 51" class="fil0 str2"/>
  <path d="m-1396 3010l98 2" class="fil0 str2"/>
  <path d="m-1754 1576l87-48" class="fil0 str2"/>
  <path d="m-2780 513l51-84" class="fil0 str2"/>
  <path d="m-4200 106l2-98" class="fil0 str2"/>
  <path d="m-4306 179c0-12 1-21 4-28 2-8 6-13 10-17 5-4 11-6 18-6 6 0 10 1 14 3 4 3 8 6 10 10 3 4 5 9 7 15 1 5 2 13 2 23 0 12-1 21-4 28-2 7-6 13-11 17-4 4-10 6-18 6-9 0-17-4-22-11-7-8-10-21-10-40zm13 0c0 16 1 27 5 33 4 5 9 8 14 8 6 0 11-3 15-8 3-6 5-17 5-33s-2-27-5-33c-4-5-9-8-15-8-5 0-10 3-13 7-4 6-6 18-6 34z" class="fil2"/>
  <path d="m-4226 146c0-5 2-10 6-14 3-3 8-5 13-5s10 2 13 5c4 4 6 9 6 14s-2 9-6 13c-3 4-8 6-13 6s-10-2-13-6c-4-4-6-8-6-13zm8 0c0 3 1 6 3 8s5 3 8 3 6-1 8-3 3-5 3-8-1-6-3-8c-2-3-5-4-8-4s-6 1-8 4c-2 2-3 5-3 8z" class="fil2"/>
  <path d="m-4860 267l12-4c2 7 5 11 9 14 4 2 8 3 13 2 6-1 10-4 13-8 4-5 5-10 4-16s-4-10-8-13-9-4-15-3c-2 1-5 2-8 3l-1-11h2c6-1 10-3 14-6 3-4 4-8 3-14 0-4-2-7-6-10-3-2-8-3-12-2-5 1-9 3-11 6-3 4-4 9-4 15h-12c0-9 2-16 6-21 5-5 11-9 19-10 5-1 10-1 15 1 5 1 9 4 12 7 3 4 5 8 6 12 1 5 0 9-2 13-1 3-4 7-8 10 6 0 11 2 15 6 4 3 6 8 7 14 2 9 0 17-5 24s-13 11-22 13c-9 1-16 0-23-4-6-4-11-10-13-18z" class="fil2"/>
  <path d="m-4784 254l12-4c2 6 5 11 9 13 4 3 9 3 13 3 6-2 11-5 14-10s4-11 3-18-4-12-9-15c-4-4-10-5-16-4-4 1-7 3-10 5s-5 5-6 8l-12 1 1-52 49-9 2 12-39 6-1 28c5-5 11-9 17-10 9-1 17 0 24 5s11 12 12 22c2 9 1 17-3 24-5 9-13 14-24 16-9 2-16 1-23-3-6-4-11-10-13-18z" class="fil2"/>
  <path d="m-4712 218c-2-12-3-22-1-29 1-7 3-14 7-18 4-5 10-8 17-9 5-1 10-1 14 1 5 1 9 4 12 7 3 4 6 8 9 14 2 5 4 13 6 22 2 12 2 21 1 29-1 7-3 13-8 18-4 5-9 8-16 9-10 2-18-1-24-6-8-7-14-20-17-38zm12-3c3 16 7 27 12 31 4 5 9 7 15 6 5-1 10-4 12-10 3-6 3-17 0-33-2-17-6-27-11-32-5-4-10-6-15-5-6 1-10 4-12 9-3 7-3 18-1 34z" class="fil2"/>
  <path d="m-4639 171c-1-5 0-10 3-14s7-7 12-8c6-1 10 0 14 3 5 3 7 7 8 12s0 10-3 14c-3 5-7 7-12 8s-10 0-14-3-7-7-8-12zm7-1c1 3 3 5 5 7 3 2 6 2 9 2 3-1 5-2 7-5 2-2 2-5 2-8-1-3-2-6-5-8-2-2-5-2-8-2-3 1-6 2-8 5-1 3-2 5-2 9z" class="fil2"/>
  <path d="m-5319 414l11-6c4 6 8 10 12 12 4 1 9 1 13 0 6-2 10-6 12-11s2-10 1-16c-2-5-6-9-10-11-5-2-10-2-15 0-3 0-5 2-8 4l-2-11h1c5-2 9-5 12-9s4-8 2-14c-2-4-4-7-8-9-4-1-8-1-13 0-4 2-7 5-9 9-2 3-3 8-2 14l-12 2c-1-8 0-15 3-21 4-6 9-10 17-13 5-2 10-3 15-2s9 2 13 5 6 7 8 11c1 4 1 8 0 12 0 5-3 8-6 12 6-1 11 0 15 3 5 3 8 7 11 13 3 9 2 17-2 24-4 8-10 14-19 17-8 3-16 3-23 0-8-3-13-8-17-15z" class="fil2"/>
  <path d="m-5200 399l-8-23-41 15-4-11 21-76 9-3 22 61 13-5 4 10-13 5 8 22-11 5zm-12-33l-16-42-13 52 29-10z" class="fil2"/>
  <path d="m-5181 339c-4-11-6-20-6-27-1-8 1-14 4-20 3-5 8-9 15-11 5-2 10-3 14-2 5 1 9 2 13 5s7 7 11 12c3 5 6 12 10 21 4 11 6 21 6 28 0 8-1 14-4 19-4 6-9 10-15 12-9 3-18 3-25-2-9-5-17-17-23-35zm12-4c5 16 11 25 16 29 6 4 11 5 16 3s9-6 11-13c1-6-1-17-6-32-6-16-11-25-17-29-5-4-10-5-16-3-5 2-8 6-10 11-2 8 0 19 6 34z" class="fil2"/>
  <path d="m-5117 281c-2-5-2-10 0-15 3-4 6-8 11-9 5-2 10-2 14 0 5 2 8 6 10 11s2 10-1 14c-2 5-5 8-10 10s-10 2-15-1c-4-2-7-5-9-10zm7-3c1 3 3 5 6 7 2 1 5 1 8 0s5-3 7-6c1-3 1-6 0-9s-3-5-6-6-6-1-8 0c-3 1-6 3-7 5-1 3-1 6 0 9z" class="fil2"/>
  <path d="m-5744 638l9-8c5 6 10 9 14 10s9 0 13-2c5-3 8-7 10-13 1-5 0-11-3-16-3-4-6-8-11-9s-10 0-15 2c-2 2-4 3-7 6l-4-10c1 0 1-1 2-1 4-3 7-6 10-10 2-5 2-10-1-14-2-4-6-7-10-8s-8 0-12 2c-4 3-7 6-8 10s-1 9 1 15l-11 4c-3-8-3-15-1-22 2-6 7-11 14-15 4-3 9-5 14-5 6 0 10 1 14 3s8 6 10 9c2 4 3 8 3 12-1 5-2 9-5 13 6-2 11-2 16 0s9 6 12 12c5 7 6 15 3 24-2 8-8 15-16 19-8 5-15 6-23 4-7-1-14-5-18-12z" class="fil2"/>
  <path d="m-5678 599l10-7c5 5 9 8 14 9 4 1 9 0 13-2 5-3 8-7 9-12 2-6 1-11-2-16s-7-8-12-9c-5-2-9-1-14 2-2 1-5 3-7 5l-4-10s1 0 1-1c5-2 8-6 11-10 2-5 2-9-1-14-3-4-6-6-10-7s-8-1-12 2c-4 2-7 5-8 9-1 5-1 9 1 15l-11 4c-3-8-3-15-1-21 2-7 7-12 14-16 4-3 9-4 14-4 5-1 10 0 14 3 4 2 7 5 10 9 2 4 3 8 3 12-1 4-2 8-5 12 6-2 11-1 16 1s9 6 12 11c5 8 6 16 3 24-2 8-8 15-16 20-8 4-15 5-23 4-8-2-14-6-19-13z" class="fil2"/>
  <path d="m-5622 541c-6-10-10-19-11-26-2-8-1-14 1-20s6-11 13-14c4-3 9-4 13-4 5-1 9 0 14 3 4 2 8 5 12 9 5 5 9 11 14 20 6 10 10 18 11 26 2 7 1 14-1 20-2 5-6 10-13 14-8 5-16 5-24 2-10-4-20-14-29-30zm11-6c8 14 15 22 21 25s11 3 16 0 8-7 8-14c1-7-3-17-11-31s-15-23-21-26c-6-2-12-2-16 1-5 2-8 7-9 13 0 7 4 18 12 32z" class="fil2"/>
  <path d="m-5569 472c-3-4-4-9-2-14 1-5 4-9 9-12 4-2 9-3 14-1 5 1 9 4 11 8 3 5 3 10 2 15s-4 8-9 11c-4 3-9 3-14 2s-9-4-11-9zm6-4c2 3 4 5 7 6s6 0 9-1c2-2 4-4 5-7s0-6-1-9c-2-3-4-5-7-5-3-1-6-1-9 1-2 1-4 4-5 7s-1 6 1 8z" class="fil2"/>
  <path d="m-6125 933l8-9c6 4 11 6 15 6 5 1 9-1 13-4 4-4 7-8 7-14 1-5-1-10-5-15-3-4-8-7-13-7s-10 1-14 5c-2 1-4 3-6 6l-6-9c1 0 1-1 2-1 4-3 7-7 8-12s0-9-3-14c-3-3-7-5-11-5-4-1-8 1-12 4-3 3-5 7-6 11 0 4 1 9 4 14l-11 6c-4-7-5-14-4-21s5-13 11-18c4-3 8-5 13-7 5-1 10-1 14 1 5 1 9 4 11 7 3 4 5 7 5 12 1 4 0 8-2 13 5-3 11-4 16-3 5 2 10 5 14 9 5 7 8 15 7 23-1 9-5 17-13 23-6 5-14 8-21 8-8 0-15-3-21-9z" class="fil2"/>
  <path d="m-6007 853l7 9-50 42c-2-2-4-4-5-7-1-5-2-10-2-15 0-6 1-13 3-22 2-14 3-24 3-30-1-7-2-12-5-15-3-4-7-6-12-6-5-1-9 1-14 4-4 4-7 9-7 14s1 9 5 14l-10 7c-5-7-8-15-6-22 1-8 5-14 12-20 7-7 15-9 23-9 7 1 14 4 19 10 2 3 4 6 5 10 2 4 2 9 2 15 0 5-1 14-3 25-2 10-3 16-3 19v8l38-31z" class="fil2"/>
  <path d="m-6021 816c-8-9-13-17-16-24s-3-14-2-20 4-11 10-16c4-3 8-5 13-6 4-1 9-1 13 0 5 2 10 4 15 8 4 3 10 9 16 16 8 9 13 17 16 24 2 7 3 14 2 20s-4 11-10 16c-7 6-15 8-24 7-10-2-21-11-33-25zm9-8c11 12 19 20 26 21 6 2 11 1 16-3 4-3 6-8 5-15 0-7-6-16-16-29-11-12-19-19-26-21-6-2-11-1-16 3-4 4-6 8-5 14 0 8 6 17 16 30z" class="fil2"/>
  <path d="m-5981 739c-4-4-5-9-5-14 1-5 3-9 7-12 4-4 9-5 14-5 5 1 9 3 13 7 3 4 4 8 4 14-1 5-3 9-7 12-4 4-8 5-14 5-5-1-9-3-12-7zm5-5c2 3 5 4 8 4 3 1 6 0 9-2 2-2 3-5 3-8 1-3 0-6-2-8-2-3-5-4-8-4-3-1-6 0-8 2-3 2-4 5-4 8-1 3 0 6 2 8z" class="fil2"/>
  <path d="m-6449 1289l7-10c6 3 12 4 16 4 5-1 8-3 12-7 3-4 5-9 4-15 0-5-3-10-7-14-4-3-9-5-14-4-5 0-10 2-14 7-1 2-2 4-4 7l-7-8 1-1c3-4 5-8 6-13s-1-10-6-13c-3-3-7-4-11-4s-8 3-11 6c-3 4-4 8-4 12 0 5 2 9 6 13l-9 8c-6-6-8-13-8-20s2-13 7-19c4-4 8-7 12-9 5-2 10-3 14-2 5 1 9 2 13 5 3 3 5 6 6 10 2 5 2 9 0 14 5-4 10-6 16-5 5 0 10 2 15 6 7 6 10 13 11 22 0 8-3 16-9 24-5 7-12 10-20 12-7 1-15-1-22-6z" class="fil2"/>
  <path d="m-6349 1212l-8 9-60-50c1 4 0 9-1 14-1 6-2 10-3 14l-9-7c2-8 3-15 2-22 0-6-1-12-3-16l5-7 77 65z" class="fil2"/>
  <path d="m-6367 1156c-9-7-15-14-19-21-4-6-6-13-6-19s3-12 7-17c4-4 7-7 12-9 4-2 8-2 13-2 5 1 10 3 16 5 5 3 11 7 19 14 9 7 15 14 19 20 4 7 6 13 6 19s-2 12-7 18c-6 7-14 11-22 11-11-1-23-7-38-19zm8-9c13 10 22 16 29 16 7 1 12-1 15-6 4-4 5-9 3-16-2-6-9-14-21-25-13-10-22-16-29-16-6-1-11 1-15 5-4 5-5 10-3 15 2 7 9 16 21 27z" class="fil2"/>
  <path d="m-6341 1073c-4-3-6-7-6-12-1-6 1-10 4-14s8-6 13-7c5 0 10 1 13 5 4 3 7 7 7 12 1 6-1 10-4 14s-8 6-13 7c-5 0-10-1-14-5zm5-5c2 2 5 3 8 2 4 0 6-1 8-4 2-2 3-5 3-8s-2-6-4-8c-3-2-5-3-9-2-3 0-5 1-7 4-2 2-3 5-3 8s2 6 4 8z" class="fil2"/>
  <path d="m-6705 1696l4-11c7 2 13 3 17 1 4-1 8-4 10-8 3-5 4-10 2-16-1-5-5-9-10-12s-9-4-14-2c-5 1-9 4-12 9-1 2-2 5-3 8l-9-7c1 0 1-1 1-1 3-5 4-9 4-14-1-5-3-9-8-12-4-2-8-3-12-2-4 2-7 4-10 8-2 4-3 9-2 13s4 8 9 12l-8 9c-6-5-10-11-11-18-2-7 0-14 4-20 2-5 6-9 10-12s9-4 14-4c4 0 9 1 12 3 4 2 7 5 9 9s3 8 2 13c4-4 9-7 14-7 6-1 11 0 17 3 7 5 12 11 14 20 2 8 1 17-4 25-5 7-10 12-18 15-7 2-15 2-22-2z" class="fil2"/>
  <path d="m-6686 1618c-11-6-18-12-23-17-5-6-8-12-9-18s0-12 4-18c2-5 6-9 10-11 3-2 8-4 13-4 4 0 10 0 16 2 5 2 12 5 21 10 10 6 18 11 23 17s8 12 9 18-1 12-4 18c-5 9-12 13-20 15-11 1-24-3-40-12zm6-11c14 8 24 12 31 12 7-1 11-4 14-9s3-10 0-16-11-13-25-21-25-12-31-12c-7 1-12 4-15 9-2 5-2 10 0 15 3 7 12 14 26 22z" class="fil2"/>
  <path d="m-6648 1551c-10-6-18-12-23-17-5-6-8-12-9-18 0-6 1-12 4-18 3-5 6-8 10-11 4-2 8-4 13-4s10 1 16 2c6 2 13 5 22 10 10 6 17 12 22 17 5 6 8 12 9 18s0 12-4 18c-4 9-11 14-20 15-10 1-24-3-40-12zm6-11c15 8 25 12 32 12 6-1 11-4 14-9 2-4 2-10 0-16-3-6-12-13-26-21s-24-12-31-11c-6 0-11 3-14 8s-3 10 0 15c3 7 11 14 25 22z" class="fil2"/>
  <path d="m-6637 1465c-4-3-7-6-8-11-2-5-1-10 2-15 2-4 6-7 11-8 5-2 10-1 14 1 5 3 8 7 9 12s1 10-2 14c-2 5-6 8-11 9s-10 1-15-2zm4-6c3 1 6 2 9 1s5-3 7-6c1-2 2-5 1-8s-3-6-5-7c-3-2-6-2-9-1s-5 2-7 5-2 6-1 9 2 5 5 7z" class="fil2"/>
  <path d="m-6852 2087l11 4-22 61c-3-1-6-2-8-4-3-3-7-7-9-12-3-5-6-12-9-20-5-13-9-23-12-28-4-5-8-9-12-10-5-2-9-2-14 0-4 2-7 6-9 11-2 6-2 11 0 15 2 5 6 8 12 11l-5 11c-9-4-14-10-17-17s-3-14 1-23c3-9 8-15 15-19 7-3 14-4 21-1 4 1 7 3 10 6 4 3 6 7 9 12s6 13 10 24c3 9 6 15 7 17 1 3 3 5 4 7l17-45z" class="fil2"/>
  <path d="m-6857 2069l3-12c5 1 10 1 13-1s6-5 7-9c1-3 2-7 1-10s-2-6-4-9-5-5-9-8c-5-3-9-5-14-7 0 0-1 0-2-1 3 4 4 8 5 13s1 9-1 14c-3 8-8 13-16 17-7 3-15 3-25 0-9-4-16-9-19-17-4-8-5-16-1-24 2-6 5-11 11-15 5-4 11-6 18-7 7 0 16 2 27 6 12 4 21 9 27 14 7 6 11 11 12 18 2 6 2 13-1 20-2 7-6 12-12 16-6 3-13 3-20 2zm-24-62c-7-3-13-3-18-1s-9 6-10 11c-2 5-2 10 1 15 3 6 7 10 14 12 6 2 11 2 17 0 5-2 8-6 10-11 2-6 2-11-1-16-2-4-7-8-13-10z" class="fil2"/>
  <path d="m-6856 1989c-11-4-20-8-25-13-6-5-10-10-12-16s-2-12 0-19c2-5 5-9 8-12 4-3 8-5 12-6 5-1 10-2 16-1s14 3 23 6c11 4 20 8 25 13 6 5 10 10 12 16s2 12 0 19c-4 9-9 15-18 17-10 4-23 2-41-4zm4-12c16 6 26 8 33 6 6-2 10-5 12-11 2-5 1-10-3-16-3-5-13-11-28-16-16-6-26-8-33-6-6 2-10 5-12 11-2 5-1 10 2 15 4 6 14 12 29 17z" class="fil2"/>
  <path d="m-6860 1902c-5-2-8-5-10-10-3-4-3-9-1-14s5-8 10-11c4-2 9-2 14 0s8 5 11 10c2 4 2 9 0 14s-5 8-9 11c-5 2-10 2-15 0zm3-7c3 1 6 1 8 0 3-1 5-4 6-7s1-5 0-8-4-5-7-6-5-1-8 0-5 4-6 7-1 5 0 8c2 3 4 5 7 6z" class="fil2"/>
  <path d="m-6964 2552l12 2-12 64c-3 0-5-1-8-2-4-3-8-6-12-11-3-4-7-10-12-18-6-12-12-21-17-25-4-5-8-8-13-8-5-1-9 0-13 3-4 2-6 7-7 12-1 6 0 11 3 15 2 4 7 7 13 8l-3 12c-9-3-16-7-20-13-4-7-5-15-3-24s5-16 12-21c6-4 13-6 20-5 4 1 8 2 12 5 3 2 7 5 10 10 4 4 8 11 14 21 5 9 8 14 10 16 2 3 4 5 6 7l8-48z" class="fil2"/>
  <path d="m-7e3 2513c-3 5-6 8-10 10-4 1-8 2-13 1-7-1-12-5-16-11s-5-13-4-21c2-9 5-15 11-20 6-4 13-6 20-4 4 0 8 2 11 5s5 7 6 12c3-5 7-9 12-12 5-2 10-3 16-2 9 2 15 6 20 13 4 7 6 15 4 25s-6 17-13 22c-6 5-14 6-23 5-6-1-11-4-15-8-3-4-5-9-6-15zm-21-1c5 1 9 0 12-3 4-2 6-6 7-11 1-4 0-8-3-12-2-3-5-5-9-6-5-1-9 0-12 3-4 2-6 6-7 10-1 5 0 9 2 12 3 4 6 6 10 7zm45 12c3 0 7 0 10-1 4-1 7-3 9-6s4-6 4-10c1-6 0-11-3-15-3-5-7-7-13-8s-11 0-15 3c-5 3-7 8-8 13-1 6 0 11 3 16 3 4 7 7 13 8z" class="fil2"/>
  <path d="m-6985 2456c-12-2-21-5-27-8-7-4-12-8-15-14-3-5-4-11-2-19 1-5 2-9 5-13 3-3 7-6 11-8 5-2 10-3 16-4 6 0 14 1 23 2 12 2 21 5 27 9 7 3 12 8 15 13 3 6 4 12 3 19-2 10-7 16-15 21-9 5-23 5-41 2zm2-12c16 3 27 3 33 0s10-7 11-13c1-5-1-10-6-15s-15-8-31-11-27-3-33 0-10 7-11 12c0 6 1 11 5 15 5 5 16 9 32 12z" class="fil2"/>
  <path d="m-7004 2371c-5 0-9-3-12-7-3-5-4-9-3-14s3-10 8-12c4-3 9-4 14-4 5 1 9 4 12 8s4 9 3 14-4 9-8 12-9 4-14 3zm1-7c4 1 6 0 9-2s4-4 5-7c0-3 0-6-2-9-2-2-5-4-8-4-3-1-6 0-8 2-3 1-4 4-5 7 0 3 0 6 2 8 2 3 4 5 7 5z" class="fil2"/>
  <path d="m-6994 3029h12v66c-3 0-6-1-8-2-5-1-9-4-14-8-4-3-9-9-15-16-9-10-16-18-21-22-5-3-10-5-14-5-5 0-9 2-13 5-3 3-5 8-5 14 0 5 2 10 6 14 3 3 8 5 14 5l-1 13c-9-1-17-5-21-10-5-6-8-13-8-23 0-9 3-17 8-22 5-6 12-9 20-9 4 0 8 1 12 3 3 1 7 4 12 8 4 4 10 10 17 19 6 7 11 12 13 14s4 4 6 5v-49z" class="fil2"/>
  <path d="m-7068 3015h-12v-64h9c7 6 16 12 27 19 11 6 23 11 35 14 8 3 17 4 27 5v12c-8 0-17-1-28-4s-22-7-32-13c-11-5-19-11-26-17v48z" class="fil2"/>
  <path d="m-7031 2939c-12 0-21-1-28-4-8-2-13-6-17-11-4-4-6-10-6-18 0-5 1-10 3-14 3-4 6-7 10-10 4-2 9-4 15-6 5-1 13-2 23-2 12 0 21 1 28 4 7 2 13 6 17 10 4 5 6 11 6 18 0 10-4 17-11 23-8 6-21 10-40 10zm0-13c16 0 27-2 33-6 5-3 8-8 8-14 0-5-3-10-8-14-6-4-17-6-33-6s-27 2-33 6c-5 4-8 9-8 14 0 6 3 11 7 14 6 4 18 6 34 6z" class="fil2"/>
  <path d="m-7064 2859c-5 0-10-2-14-6-3-4-5-8-5-13s2-10 5-14c4-3 9-5 14-5s9 2 13 6c4 3 6 8 6 13s-2 9-6 13-8 6-13 6zm0-8c3 0 6-1 8-3s3-5 3-8-1-6-3-8c-2-3-5-4-8-4s-6 1-8 4c-3 2-4 5-4 8s1 6 4 8c2 2 5 3 8 3z" class="fil2"/>
  <path d="m-6940 3505l12-3 11 65c-3 1-6 1-9 0-4-1-9-2-14-5s-11-8-18-13c-10-10-18-16-24-18-6-3-11-4-16-3-4 0-8 3-11 7-2 4-3 8-2 14s3 10 7 13 10 4 16 3l1 12c-10 1-17-1-23-6-6-4-10-11-11-21-2-9-1-17 4-23 4-7 10-10 17-12 4-1 8 0 12 1 5 0 9 2 14 5s11 9 20 16c8 6 13 10 15 12 3 1 5 3 7 4l-8-48z" class="fil2"/>
  <path d="m-7016 3440l3 12c-4 2-7 4-9 6-3 4-4 9-3 13s2 7 5 10 8 5 14 7c5 1 13 1 23-1-5-2-9-5-12-9s-5-8-5-12c-2-8 0-16 5-22 5-7 12-11 21-13 6-1 12-1 18 1s10 5 14 9 6 9 7 15c2 10 0 19-7 26-6 8-18 13-34 16-19 4-34 2-44-3-8-5-13-12-15-23-1-7 0-14 3-20 3-5 9-9 16-12zm51 42c4-1 8-2 12-5 3-2 6-5 7-9 1-3 2-7 1-10-1-5-4-9-8-12-5-3-11-4-18-3s-12 4-15 8c-3 5-4 10-3 15 1 6 3 10 8 13 4 3 10 4 16 3z" class="fil2"/>
  <path d="m-6992 3422c-12 2-22 3-29 1-7-1-14-3-18-7-5-4-8-10-9-17-1-5-1-10 1-14 1-5 4-9 7-12 4-3 8-6 14-9 5-2 13-4 22-6 12-2 21-2 29-1 7 1 13 3 18 8 5 4 8 9 9 16 2 10-1 18-6 24-7 8-20 14-38 17zm-3-12c16-3 27-7 31-12 5-4 7-9 6-15-1-5-4-10-10-12-6-3-17-3-33 0-17 2-27 6-32 11-4 5-6 10-5 15 1 6 4 10 9 12 7 3 18 3 34 1z" class="fil2"/>
  <path d="m-7039 3349c-5 1-10 0-14-3s-7-7-8-12c-1-6 0-10 3-14 3-5 7-7 12-8s10 0 14 3c5 3 7 7 8 12s0 10-3 14-7 7-12 8zm-1-7c3-1 5-3 7-5 2-3 2-6 2-9-1-3-2-5-5-7-2-2-5-2-8-2-3 1-6 2-8 5-2 2-2 5-2 8 1 3 2 6 5 8 3 1 5 2 9 2z" class="fil2"/>
  <path d="m-6805 3963l11-4 23 62c-3 1-6 2-9 2-4 0-9-1-15-3-5-2-12-6-19-10-12-7-21-12-28-14-6-1-11-2-15 0-5 2-8 5-10 9-2 5-2 9 0 15 2 5 5 9 10 11 4 2 9 2 15 0l3 12c-9 3-17 2-23-2-7-3-11-9-15-18-3-9-3-17 0-24s8-12 16-15c3-1 7-2 11-2 5 1 9 2 15 4 5 2 13 6 23 12 8 4 13 7 16 9 3 1 6 2 8 2l-17-46z" class="fil2"/>
  <path d="m-6823 3956l-5-12c6-3 9-6 11-11 2-4 2-9 0-13-2-6-6-10-11-12-6-2-12-2-19 0-6 3-11 7-13 12-3 5-3 10-1 16 2 4 4 7 6 9 3 3 6 4 10 5l2 11-51 8-17-46 11-4 13 37 27-4c-6-4-10-9-12-15-3-8-3-16 1-24s10-13 19-16c8-3 16-4 24-1 10 3 17 10 21 20 3 9 3 17 0 24s-8 12-16 16z" class="fil2"/>
  <path d="m-6871 3891c-11 4-20 6-27 6-8 1-14-1-20-4-5-3-9-8-11-15-2-5-3-10-2-14 1-5 2-9 5-13s7-7 12-11c5-3 12-6 21-10 11-4 21-6 28-6 8 0 14 1 19 4 6 4 10 9 12 15 3 9 3 18-2 25-5 9-17 17-35 23zm-4-12c16-5 25-11 29-16 4-6 5-11 3-16s-6-9-13-11c-6-1-17 1-32 6-16 6-25 11-29 17-4 5-5 10-3 16 2 5 6 8 11 10 8 2 19 0 34-6z" class="fil2"/>
  <path d="m-6929 3827c-5 2-10 2-15 0-4-3-8-6-9-11-2-5-2-10 0-14 2-5 6-8 11-10s10-2 14 1c5 2 8 5 10 10s2 10-1 15c-2 4-5 7-10 9zm-3-7c3-1 5-3 7-6 1-2 1-5 0-8s-3-5-6-7c-3-1-6-1-9 0s-5 3-6 6-2 6 0 8c1 3 3 6 5 7 3 1 6 1 9 0z" class="fil2"/>
  <path d="m-6592 4392l11-6 32 57c-2 1-5 2-8 3-4 1-9 0-15-1s-13-3-21-6c-13-5-23-8-29-8-7-1-12 0-16 2s-7 6-8 11c-1 4 0 9 3 14s6 8 11 9c5 2 10 1 16-2l5 11c-9 4-17 5-24 3-7-3-13-8-17-16-5-9-7-16-5-24 2-7 6-13 13-17 4-2 7-3 12-4 4 0 9 0 14 1 6 1 14 4 25 8l18 6c2 0 5 1 8 1l-25-42z" class="fil2"/>
  <path d="m-6608 4341l-20 12 21 37-9 5-79-7-5-8 56-32-7-12 10-6 7 12 20-12 6 11zm-30 17l-39 23 55 4-16-27z" class="fil2"/>
  <path d="m-6669 4332c-10 6-19 10-26 11-8 2-14 1-20-1s-11-6-14-13c-3-4-4-9-4-13-1-5 0-9 3-14 2-4 5-8 9-12 5-5 11-9 20-14 10-6 18-10 26-11 7-2 14-1 20 1 5 2 10 6 14 13 5 8 5 16 2 24-4 10-14 20-30 29zm-6-11c14-8 22-15 25-21s3-11 0-16-7-8-14-8c-7-1-17 3-31 11s-23 15-26 21c-2 6-2 12 1 16 2 5 7 8 13 9 7 0 18-4 32-12z" class="fil2"/>
  <path d="m-6738 4279c-4 3-9 4-14 2-5-1-9-4-12-9-2-4-3-9-1-14 1-5 4-9 8-11 5-3 10-3 15-2s8 4 11 9c3 4 3 9 2 14s-4 9-9 11zm-4-6c3-2 5-4 6-7s0-6-1-9c-2-2-4-4-7-5s-6 0-9 1c-3 2-5 4-5 7-1 3-1 6 1 9 1 2 4 4 7 5s6 1 8-1z" class="fil2"/>
  <path d="m-6307 4777l9-8 42 50c-2 2-5 4-8 5-4 1-9 2-15 2s-13-1-22-2c-13-3-23-4-30-4-6 1-11 2-15 5-3 3-5 7-6 12 0 5 2 9 5 14 4 4 8 7 13 7 5 1 10-1 15-5l7 10c-8 6-15 8-23 7-7-2-14-6-20-13s-9-15-8-22c0-8 3-14 9-19 3-3 7-5 11-6s9-2 14-2c6 0 15 1 26 3 9 2 16 3 19 3h8l-31-37z" class="fil2"/>
  <path d="m-6327 4776l-9-9c4-5 7-10 7-15 0-4-1-8-5-12-3-4-8-7-13-7-6-1-11 1-16 5-4 3-6 8-7 13 0 5 1 10 5 14 2 2 4 4 7 6l-9 6c-1-1-1-2-2-2-3-4-7-7-12-8-4-2-9 0-13 3s-6 7-6 11 1 8 4 12c3 3 7 5 11 6 5 0 9-1 14-4l7 11c-8 4-15 5-21 4-7-1-13-5-18-11-4-4-6-8-7-13s-1-10 0-15c2-4 4-8 8-11 3-2 7-4 11-5 4 0 9 1 13 3-3-5-3-11-2-16s4-10 9-14c6-6 14-8 23-7s16 5 22 13c6 6 8 13 8 21s-3 15-9 21z" class="fil2"/>
  <path d="m-6394 4731c-9 8-17 13-24 16s-14 3-20 2-11-4-16-10c-3-4-5-8-6-13-1-4-1-9 0-13 2-5 4-10 8-15 3-4 9-10 16-16 9-8 17-13 24-16 7-2 14-3 20-2s11 4 16 10c6 7 8 15 7 24-2 10-11 21-25 33zm-8-9c12-11 20-19 21-26 2-6 1-11-3-16-3-4-8-6-15-5-7 0-16 6-29 16-12 11-19 19-21 26-2 6-1 11 3 16 4 4 8 6 14 5 8 0 17-6 30-16z" class="fil2"/>
  <path d="m-6471 4691c-4 4-9 5-14 5-5-1-9-3-12-7-4-4-5-9-5-14 1-5 3-9 7-13 4-3 8-4 14-4 5 1 9 3 12 7 4 4 5 8 5 14-1 5-3 9-7 12zm-5-5c3-2 4-5 4-8 1-3 0-6-2-9-2-2-5-3-8-3-3-1-6 0-8 2-3 2-4 5-5 8 0 3 1 6 3 8 2 3 5 4 8 4 3 1 6 0 8-2z" class="fil2"/>
  <path d="m-5961 5106l8-9 50 42c-2 3-4 5-6 6-4 2-9 4-15 5s-13 1-22 1c-14 0-24 1-30 2-6 2-11 4-14 8s-4 8-4 13c1 4 3 9 7 12 5 4 10 6 14 5 5 0 10-3 14-8l9 9c-7 7-14 10-21 11-8 0-15-3-22-9-8-6-12-13-13-21s2-14 7-20c2-3 5-6 9-8s8-3 14-4 14-1 26-1c9 0 15 0 18-1 3 0 6-1 9-1l-38-32z" class="fil2"/>
  <path d="m-6020 5057l8-9 50 42c-2 2-4 4-7 5-4 3-9 4-14 5-6 1-13 2-22 2-14-1-24 0-30 2-7 1-11 4-14 7-3 4-5 8-4 13 0 5 3 9 7 12 5 4 9 6 14 5 5 0 10-3 14-7l9 9c-7 6-14 10-22 10-7 0-14-3-22-9-7-6-11-13-12-21-1-7 1-14 6-20 3-3 6-6 10-7 4-2 8-4 14-5 5 0 14-1 25-1h19c3-1 6-1 9-2l-38-31z" class="fil2"/>
  <path d="m-6054 5077c-7 9-14 15-21 19-6 4-13 6-19 6s-12-3-17-7c-4-4-7-7-9-12-2-4-2-8-2-13 1-5 3-10 5-16 3-5 7-11 14-19 7-9 14-15 20-19 7-4 13-6 19-6s12 2 18 7c7 6 11 14 11 22-1 11-7 23-19 38zm-9-8c10-13 16-22 16-29 1-7-1-12-6-15-4-4-9-5-16-3-6 2-14 9-25 21-10 13-16 22-16 29-1 6 1 11 5 15 5 4 10 5 15 3 7-2 16-9 27-21z" class="fil2"/>
  <path d="m-6137 5051c-3 4-7 6-12 6-6 1-10-1-14-4s-6-8-7-13c0-5 1-10 5-13 3-4 7-7 12-7 6-1 10 1 14 4s6 8 7 13c0 5-1 10-5 14zm-5-5c2-2 3-5 2-8 0-4-1-6-4-8-2-2-5-3-8-3s-6 2-8 4c-2 3-3 5-2 9 0 3 1 5 4 7 2 2 5 3 8 3s6-2 8-4z" class="fil2"/>
  <path d="m-5562 5371l6-10 57 32c-2 3-3 5-6 7-3 3-8 6-13 7-6 2-13 4-22 5-13 3-23 5-29 8-6 2-10 6-12 10-3 4-3 8-2 13 1 4 4 8 9 11s10 4 15 2c5-1 9-4 12-10l10 8c-5 7-12 12-19 13-7 2-15 0-23-4-8-5-14-11-16-19-2-7-1-14 3-21 2-3 5-6 8-9 3-2 8-4 13-6s14-4 25-6c9-2 16-3 18-4 3-1 6-2 8-3l-42-24z" class="fil2"/>
  <path d="m-5607 5331l10 6-39 67c4-1 9-1 15-1 5 0 10 0 14 1l-6 10c-8-1-15 0-21 1-7 2-12 4-16 6l-7-4 50-86z" class="fil2"/>
  <path d="m-5659 5358c-6 10-12 18-17 23-6 5-12 8-18 9-6 0-12-1-18-4-5-3-8-6-11-10-2-4-4-8-4-13s1-10 2-16c2-6 5-13 10-22 6-10 12-17 17-22 6-5 12-8 18-9s12 0 18 4c9 4 14 11 15 20 1 10-3 24-12 40zm-11-6c8-15 12-25 12-32-1-6-4-11-9-14-4-2-10-2-16 0-6 3-13 12-21 26s-12 24-11 31c0 6 3 11 8 14s10 3 15 0c7-3 14-11 22-25z" class="fil2"/>
  <path d="m-5745 5347c-3 4-6 7-11 8-5 2-10 1-15-2-4-2-7-6-8-11-2-5-1-10 1-14 3-5 7-8 12-9s10-1 14 2c5 2 8 6 9 11s1 10-2 15zm-6-4c1-3 2-6 1-9s-3-5-6-7c-2-1-5-2-8-1s-6 3-7 5c-2 3-2 6-1 9s2 5 5 7 6 2 9 1 5-2 7-5z" class="fil2"/>
  <path d="m-5123 5562l4-11 61 22c-1 3-2 6-4 8-3 3-7 7-12 9-5 3-12 6-20 9-13 5-23 9-28 12-5 4-9 8-10 12-2 5-2 9 0 14 2 4 6 7 11 9 6 2 11 2 15 0 5-2 8-6 10-12l12 5c-4 9-10 14-17 17s-14 3-23-1c-9-3-15-8-19-15-3-7-4-14-1-21 1-4 3-7 6-10 3-4 7-6 12-9s13-6 24-10c9-3 15-6 17-7 3-1 5-3 7-4l-45-17z" class="fil2"/>
  <path d="m-5149 5592c-4 11-8 20-13 26-4 6-10 10-15 12-6 2-13 2-19-1-5-2-9-4-12-8-3-3-6-7-7-12s-1-10 0-16c0-6 2-13 6-23 4-11 8-19 13-25 4-6 10-10 15-12 6-2 13-2 19 1 9 3 15 9 18 17 3 10 2 24-5 41zm-11-4c5-15 7-26 5-32-1-7-5-11-10-13s-11-1-16 3c-6 4-11 13-17 29-5 15-7 26-5 32 1 7 5 11 10 13 6 2 11 1 15-2 6-5 12-15 18-30z" class="fil2"/>
  <path d="m-5221 5566c-4 11-8 20-13 25-5 6-10 10-16 12s-12 2-19 0c-5-2-9-5-12-8-3-4-5-8-6-12-1-5-2-10-1-16s3-14 6-23c4-11 8-20 13-25 5-6 10-10 16-12s12-2 19 0c9 4 15 9 17 18 4 10 2 23-4 41zm-12-4c6-16 8-26 6-33-2-6-5-10-11-12-5-2-10-1-16 3-5 3-11 13-16 28-6 16-8 26-6 33 2 6 5 10 11 12 5 2 10 1 15-2 6-4 12-14 17-29z" class="fil2"/>
  <path d="m-5308 5570c-2 5-5 8-10 10-4 3-9 3-14 1s-8-5-11-10c-2-4-2-9 0-14s5-8 10-11c4-2 9-2 14 0s8 5 11 9c2 5 2 10 0 15zm-7-3c1-3 1-6 0-8-1-3-4-5-7-6s-5-1-8 0-5 4-6 7-1 5 0 8 4 5 7 6 5 1 8 0c3-2 5-4 6-7z" class="fil2"/>
  <path d="m-4638 5666l12 2-14 76c3-2 8-4 13-6s10-3 14-4l-2 12c-8 2-14 4-20 8s-10 7-13 11l-8-1 18-98z" class="fil2"/>
  <path d="m-4675 5683l-12-1c0-6-1-10-3-13-3-3-6-5-10-6-4 0-7 0-10 1-4 1-6 3-8 6-3 2-5 6-7 10-2 5-3 10-4 15 0 0-1 1-1 2 3-3 7-6 12-8 4-1 9-2 14-1 8 2 14 6 19 13s6 15 4 24c-1 10-6 18-13 23s-15 7-23 5c-7-1-12-4-17-8-5-5-8-10-9-17-2-7-2-16 0-28 3-13 6-22 10-29s9-12 15-15 13-4 20-3c7 2 13 5 17 10s6 12 6 20zm-57 34c-1 7 0 13 3 17 3 5 7 8 12 9s10-1 15-4c5-4 8-9 9-16 1-6 0-12-3-16-3-5-7-8-13-9-5-1-10 1-15 4-4 3-7 8-8 15z" class="fil2"/>
  <path d="m-4754 5695c-2 12-5 21-8 27-4 7-8 12-14 15-5 3-11 4-19 2-5-1-9-2-13-5-3-3-6-7-8-11-2-5-3-10-4-16 0-6 1-14 2-23 2-12 5-21 9-27 3-7 8-12 13-15 6-3 12-4 19-3 10 2 16 7 21 15 5 9 5 23 2 41zm-12-2c3-16 3-27 0-33s-7-10-13-11c-5-1-10 1-15 6s-8 15-11 31-3 27 0 33 7 10 12 11c6 0 11-1 15-5 5-5 9-16 12-32z" class="fil2"/>
  <path d="m-4839 5714c0 5-3 9-7 12-5 3-9 4-14 3s-10-3-12-8c-3-4-4-9-4-14 1-5 4-9 8-12s9-4 14-3 9 4 12 8 4 9 3 14zm-7-1c1-4 0-6-2-9s-4-4-7-5c-3 0-6 0-9 2-2 2-4 5-4 8-1 3 0 6 2 8 1 3 4 4 7 5 3 0 6 0 8-2 3-2 5-4 5-7z" class="fil2"/>
  <path d="m-4163 5692h12v78c3-3 7-6 12-9 5-2 9-5 13-6v12c-7 3-13 7-18 11-5 5-9 9-11 14h-8v-100z" class="fil2"/>
  <path d="m-4213 5746c5 2 9 4 11 8 3 3 4 7 4 12 0 7-2 13-8 18-5 5-12 8-20 8-9 0-16-3-21-8-6-5-8-11-8-18 0-5 1-9 3-12 3-4 6-6 11-8-6-2-10-5-14-10-3-4-4-9-4-16 0-8 3-15 9-21s14-9 23-9c10 0 18 3 24 9s9 13 9 22c0 6-1 12-5 16-3 4-8 7-14 9zm3 21c0-5-2-9-5-12s-7-4-12-4c-4 0-8 1-11 4s-5 7-5 11 2 8 5 11 7 5 11 5c5 0 9-2 12-5s5-6 5-10zm4-46c0-4-1-7-3-10-2-4-4-6-7-8s-7-3-11-3c-6 0-10 2-14 6s-6 8-6 14 2 11 6 15 9 6 15 6c5 0 10-2 14-6s6-9 6-14z" class="fil2"/>
  <path d="m-4271 5741c0 12-1 21-4 28-2 8-6 13-11 17-4 4-10 6-18 6-5 0-10-1-14-3-4-3-7-6-10-10-2-4-4-9-6-15-1-5-2-13-2-23 0-12 1-21 4-28 2-7 6-13 10-17 5-4 11-6 18-6 10 0 17 4 23 11 6 8 10 21 10 40zm-13 0c0-16-2-27-6-33-3-5-8-8-14-8-5 0-10 3-14 8-4 6-6 17-6 33s2 27 6 33c4 5 9 8 14 8 6 0 11-3 14-7 4-6 6-18 6-34z" class="fil2"/>
  <path d="m-4351 5774c0 5-2 10-6 14-4 3-8 5-13 5s-10-2-14-5c-3-4-5-9-5-14s2-9 6-13c3-4 8-6 13-6s9 2 13 6 6 8 6 13zm-8 0c0-3-1-6-3-8s-5-3-8-3-6 1-8 3c-3 2-4 5-4 8s1 6 4 8c2 3 5 4 8 4s6-1 8-4c2-2 3-5 3-8z" class="fil2"/>
  <path d="m-3690 5635l12-2 14 77c2-3 6-7 10-11 4-3 8-6 11-8l2 12c-6 4-11 9-15 14-4 6-7 11-9 15l-7 2-18-99z" class="fil2"/>
  <path d="m-3706 5726l2 11-64 12-1-10c5-7 9-17 14-29 4-12 7-25 8-37 1-8 1-18 0-28l12-2c1 8 1 18 0 29s-3 23-6 34c-4 11-8 20-13 28l48-8z" class="fil2"/>
  <path d="m-3788 5702c2 12 2 22 1 29s-3 14-7 18c-4 5-10 8-17 9-5 1-10 1-14-1-5-1-9-4-12-7-3-4-6-8-9-14-2-5-4-13-6-22-2-12-2-21-1-29 1-7 3-13 8-18 4-5 9-8 16-9 10-2 18 1 24 6 8 7 14 20 17 38zm-12 3c-3-16-7-27-12-31-4-5-9-7-15-6-5 1-10 4-12 10-3 6-3 17 0 33 2 17 6 27 11 32 5 4 10 6 15 5 6-1 10-4 12-9 3-7 3-18 1-34z" class="fil2"/>
  <path d="m-3861 5749c1 5 0 10-3 14s-7 7-12 8c-6 1-10 0-14-3-5-3-7-7-8-12s0-10 3-14c3-5 7-7 12-8s10 0 14 3 7 7 8 12zm-7 1c-1-3-3-5-5-7-3-2-6-2-9-2-3 1-5 2-7 5-2 2-2 5-2 8 1 3 2 6 5 8 2 2 5 2 8 2 3-1 6-2 8-5 1-3 2-5 2-9z" class="fil2"/>
  <path d="m-3234 5497l12-4 26 73c2-3 5-7 8-12l10-10 4 11c-5 6-9 11-12 17-4 6-6 12-6 16l-7 3-35-94z" class="fil2"/>
  <path d="m-3297 5600l11-5c3 4 6 7 8 8 4 3 9 3 13 1 4-1 7-3 9-6 3-4 4-9 4-15 1-6-1-13-4-23-2 5-4 10-7 13-3 4-7 6-12 8-7 3-15 2-22-1-8-4-13-10-16-19-2-6-3-12-2-18 0-6 3-11 6-15 3-5 8-8 14-10 9-3 18-3 27 2 8 5 16 15 21 32 7 18 8 32 5 43-3 9-10 15-20 19-7 3-14 3-20 0-6-2-11-7-15-14zm32-57c-1-4-3-8-6-10-3-3-7-5-10-6-4-1-8-1-11 0-5 2-8 6-10 11s-2 11 0 18c3 6 6 11 11 13 5 3 10 3 15 1s9-5 11-10c3-6 3-11 0-17z" class="fil2"/>
  <path d="m-3319 5581c4 11 6 20 6 27 1 8-1 14-4 20-3 5-8 9-15 11-5 2-10 3-14 2-5-1-9-2-13-5s-7-7-11-12c-3-5-6-12-10-21-4-11-6-21-6-28 0-8 1-14 4-19 4-6 9-10 15-12 9-3 18-3 25 2 9 5 17 17 23 35zm-12 4c-5-16-11-25-16-29-6-4-11-5-16-3s-9 6-11 13c-1 6 1 17 6 32 6 16 11 25 17 29 5 4 10 5 16 3 5-2 8-6 10-11 2-8 0-19-6-34z" class="fil2"/>
  <path d="m-3383 5639c2 5 2 10 0 15-3 4-6 8-11 9-5 2-10 2-14 0-5-2-8-6-10-11s-2-10 1-14c2-5 5-8 10-10s10-2 14 1c5 2 8 5 10 10zm-7 3c-1-3-3-5-6-7-2-1-5-1-8 0s-5 3-7 6c-1 3-1 6 0 9s3 5 6 6 6 2 8 0c3-1 6-3 7-5 1-3 1-6 0-9z" class="fil2"/>
  <path d="m-2808 5282l10-6 39 68c1-4 3-9 6-14 3-4 5-8 8-11l6 10c-5 6-8 12-10 19-2 6-3 12-3 17l-7 4-49-87z" class="fil2"/>
  <path d="m-2822 5320l-11 8c-4-5-8-8-13-9-4-1-9 0-13 2-5 3-8 7-10 13-1 6 0 12 4 19 3 6 8 9 13 11 6 2 11 1 17-2 3-2 6-5 7-8 2-3 3-6 3-10l11-4 17 49-42 24-6-10 34-19-9-26c-3 6-7 11-13 15-7 4-15 5-23 3-9-3-15-8-20-16-4-8-6-16-5-24 2-10 7-18 17-24 8-4 15-6 23-4 7 1 14 6 19 12z" class="fil2"/>
  <path d="m-2878 5379c6 10 10 19 11 26 2 8 1 14-1 20s-6 11-13 14c-4 3-9 4-13 4-5 1-9 0-14-3-4-2-8-5-12-9-5-5-9-11-14-20-6-10-10-18-11-26-2-7-1-14 1-20 2-5 6-10 13-14 8-5 16-5 24-2 10 4 20 14 29 30zm-11 6c-8-14-15-22-21-25s-11-3-16 0-8 7-8 14c-1 7 3 17 11 31s15 23 21 26c6 2 12 2 17-1 4-2 7-7 8-13 0-7-4-18-12-32z" class="fil2"/>
  <path d="m-2931 5448c3 4 4 9 2 14-1 5-4 9-9 12-4 2-9 3-14 1-5-1-9-4-11-8-3-5-3-10-2-15s4-8 9-11c4-3 9-3 14-2s9 4 11 9zm-6 4c-2-3-4-5-7-6s-6 0-9 1c-2 2-4 4-5 7s0 6 1 9c2 3 4 5 7 5 3 1 6 1 9-1 2-1 4-4 5-7s1-6-1-8z" class="fil2"/>
  <path d="m-2427 4997l9-8 50 59c1-4 2-8 4-13 2-6 4-10 6-14l7 9c-3 7-5 14-6 21s-1 12 0 17l-6 5-64-76z" class="fil2"/>
  <path d="m-2481 5042l15 18 33-28 8 9 6 79-7 6-42-49-10 8-7-8 10-9-15-18 9-8zm22 27l29 34-5-54-24 20z" class="fil2"/>
  <path d="m-2479 5104c8 9 13 17 16 24s3 14 2 20-4 11-10 16c-4 3-8 5-13 6-4 1-9 1-13 0-5-2-10-4-15-8-4-3-10-9-16-16-8-9-13-17-16-24-2-7-3-14-2-20s4-11 10-16c7-6 15-8 24-7 10 2 21 11 33 25zm-9 8c-11-12-19-20-26-21-6-2-11-1-16 3-4 3-6 8-5 15 0 7 6 16 16 29 11 12 19 19 26 21 6 2 11 1 16-3 4-4 6-8 5-14 0-8-6-17-16-30z" class="fil2"/>
  <path d="m-2519 5181c4 4 5 9 5 14-1 5-3 9-7 12-4 4-9 5-14 5-5-1-9-3-13-7-3-4-4-8-4-14 1-5 3-9 7-12 4-4 8-5 14-5 5 1 9 3 12 7zm-5 5c-2-3-5-4-8-4-3-1-6 0-9 2-2 2-3 5-3 8-1 3 0 6 2 8 2 3 5 4 8 5 3 0 6-1 8-3 3-2 4-5 4-8 1-3 0-6-2-8z" class="fil2"/>
  <path d="m-2101 4649l8-9 59 50c0-4 0-9 1-14 1-6 2-11 4-14l9 7c-2 8-3 15-3 21 0 7 1 13 3 17l-5 6-76-64z" class="fil2"/>
  <path d="m-2101 4690l-7 10c-6-3-11-4-16-4-4 1-8 3-11 7-4 4-5 9-5 15 1 5 3 10 8 14 4 3 9 5 14 5 5-1 9-3 13-8 1-1 3-4 4-7l8 8c-1 0-1 1-2 1-3 4-5 9-6 14 0 5 2 9 6 12 3 3 7 5 11 4 5 0 8-2 11-6s5-8 5-12c-1-4-3-9-7-13l10-8c5 6 8 13 8 20s-3 13-8 19c-3 4-7 7-12 9s-9 3-14 2c-5 0-9-2-12-5-4-3-6-6-7-10s-1-9 0-14c-5 4-10 6-15 6-6-1-11-3-16-7-6-6-10-13-10-22-1-8 2-16 8-24 6-6 12-10 20-11s15 0 22 5z" class="fil2"/>
  <path d="m-2133 4764c9 7 15 14 19 21 4 6 6 13 6 19s-3 12-7 17c-4 4-7 7-12 9-4 2-8 2-13 2-5-1-10-3-16-5-5-3-11-7-19-14-9-7-15-14-19-20-4-7-6-13-6-19s2-12 7-18c6-7 14-11 22-11 11 1 23 7 38 19zm-8 9c-13-10-22-16-29-16-7-1-12 1-15 6-4 4-5 9-3 16 2 6 9 14 21 25 13 10 22 16 29 16 6 1 11-1 15-5 4-5 5-10 3-15-2-7-9-16-21-27z" class="fil2"/>
  <path d="m-2159 4847c4 3 6 7 6 12 1 6-1 10-4 14s-8 6-13 7c-5 0-10-1-14-5-3-3-6-7-6-12-1-6 1-10 4-14s8-6 13-7c5 0 10 1 14 5zm-5 5c-2-2-5-3-8-2-4 0-6 1-8 4-2 2-3 5-3 8s2 6 4 8c3 2 5 3 9 2 3 0 5-1 7-4 2-2 3-5 3-8s-2-6-4-8z" class="fil2"/>
  <path d="m-1840 4250l6-10 67 39c-1-4-1-9-1-15v-14l11 6c-1 8-1 15 1 21 1 7 3 12 6 16l-4 7-86-50z" class="fil2"/>
  <path d="m-1878 4339l-10-6 33-57c2 1 5 3 6 6 3 3 6 8 8 13 2 6 3 13 5 22 2 13 5 23 7 29 3 6 6 10 10 12 4 3 9 3 13 2 5-1 8-5 11-9 3-5 4-10 3-15-2-5-5-9-10-12l7-10c8 5 12 11 14 19 1 7 0 15-5 23s-11 13-18 16c-8 2-15 1-21-3-4-2-7-5-9-8-3-3-5-8-7-13s-4-14-6-25c-1-10-3-16-3-19-1-2-2-5-4-7l-24 42z" class="fil2"/>
  <path d="m-1852 4369c10 6 18 12 23 17 5 6 8 12 9 18 0 6-1 12-4 18-3 5-6 8-10 11-4 2-8 4-13 4s-10-1-16-2c-6-2-13-5-22-10-10-6-17-12-22-17-5-6-8-12-9-18s0-12 4-18c4-9 11-14 20-15 10-1 24 3 40 12zm-6 11c-15-8-25-12-32-12-6 1-11 4-14 9-2 4-2 10 0 16 3 6 12 13 26 21s24 12 31 11c6 0 11-3 14-8s3-10 0-15c-3-7-11-14-25-22z" class="fil2"/>
  <path d="m-1863 4455c4 3 7 6 8 11 2 5 1 10-2 15-2 4-6 7-11 8-5 2-10 1-14-1-5-3-8-7-9-12s-1-10 2-14c2-5 6-8 11-9s10-1 15 2zm-4 6c-3-1-6-2-9-1s-5 3-7 6c-1 2-2 5-1 8s3 6 5 7c3 2 6 2 9 1s5-2 7-5 2-6 1-9-2-5-5-7z" class="fil2"/>
  <path d="m-1655 3817l4-11 74 26c-2-3-3-8-4-13-1-6-2-11-2-15l11 4c1 8 2 15 5 21 3 7 5 11 9 15l-3 7-94-34z" class="fil2"/>
  <path d="m-1678 3880l5-11 73 26c-2-3-3-8-4-14-1-5-2-10-2-14l11 4c1 8 3 15 5 21 3 6 6 11 9 15l-3 7-94-34z" class="fil2"/>
  <path d="m-1642 3926c11 4 19 9 25 13 6 5 10 10 12 16s2 12-1 19c-1 5-4 9-7 12-4 3-8 5-13 6-4 1-10 2-16 1-6 0-13-2-22-6-11-4-20-8-26-13s-10-10-12-16c-2-5-1-12 1-19 3-9 9-15 17-17 10-4 24-2 42 4zm-5 12c-15-6-26-7-32-6-6 2-11 6-13 11-1 5-1 10 3 16 4 5 14 11 29 16 15 6 26 8 32 6 7-2 11-5 13-10 2-6 1-11-2-16-4-6-14-11-30-17z" class="fil2"/>
  <path d="m-1638 4013c5 2 8 5 10 10 2 4 3 9 1 14s-5 9-10 11-9 2-14 0c-5-1-9-5-11-9-2-5-2-10 0-15 1-5 4-8 9-10 5-3 10-3 15-1zm-3 7c-3-1-6-1-9 0-3 2-5 4-6 7s-1 6 1 8c1 3 3 5 6 6s6 1 9 0 5-3 6-6 1-6 0-9c-2-3-4-5-7-6z" class="fil2"/>
  <path d="m-1544 3348l2-12 76 14c-2-3-4-8-6-13s-3-10-4-14l12 2c2 8 4 14 8 20s7 10 11 13l-1 8-98-18z" class="fil2"/>
  <path d="m-1502 3388c12 2 21 5 28 8 6 4 11 8 14 14 3 5 4 11 3 18-1 6-3 10-6 14-3 3-6 6-11 8-4 2-9 3-15 3-6 1-14 0-24-1-11-2-20-5-27-9-7-3-11-8-14-13-3-6-4-12-3-19 2-10 6-16 14-21 9-5 23-5 41-2zm-2 12c-16-3-27-3-33 0s-9 7-10 13c-1 5 1 10 5 15 5 5 15 8 31 11s28 3 33 0c6-3 10-7 11-12 1-6-1-11-5-15-5-5-16-9-32-12z" class="fil2"/>
  <path d="m-1515 3464c12 2 21 5 27 8 7 4 12 8 15 14 3 5 4 11 2 19-1 5-2 9-5 13-3 3-7 6-11 8-5 2-10 3-16 4-6 0-14-1-23-2-12-2-21-5-27-9-7-3-12-8-15-13-3-6-4-12-3-19 2-10 7-16 15-21 9-5 23-5 41-2zm-2 12c-16-3-27-3-33 0s-10 7-11 13c-1 5 1 10 6 15s15 8 31 11 27 3 33 0 10-7 11-12c0-6-1-11-5-15-5-5-16-9-32-12z" class="fil2"/>
  <path d="m-1496 3549c5 0 9 3 12 7 3 5 4 9 3 14s-3 10-8 12c-4 3-9 4-14 4-5-1-9-4-12-8s-4-9-3-14 4-9 8-12 9-4 14-3zm-1 7c-4-1-6 0-9 2s-4 4-5 7c0 3 0 6 2 9 2 2 5 4 8 4 3 1 6 0 8-2 3-1 4-4 5-7 0-3 0-6-2-8-2-3-4-5-7-5z" class="fil2"/>
  <path d="m-1495 2867l1 12c-5 1-9 3-12 6-2 2-4 6-4 10s1 7 3 10 4 5 7 7 7 4 11 5c5 1 10 2 15 2h3c-4-3-7-6-10-10-2-5-3-9-3-14 0-8 3-15 9-21s13-9 23-9 18 3 25 9c6 6 9 14 9 23 0 6-2 12-5 17-4 6-9 10-15 13-7 2-16 4-28 4-13 0-23-2-31-4-7-3-13-7-17-13-4-5-6-12-6-19 0-8 2-14 7-19 4-5 10-8 18-9zm44 50c7 0 12-2 17-5 4-4 6-9 6-14s-3-10-7-14-10-6-17-6-12 2-16 6c-4 3-6 8-6 14 0 5 2 10 6 14 4 3 10 5 17 5z" class="fil2"/>
  <path d="m-1469 2943c12 0 21 1 28 3 8 3 13 6 17 11s6 11 6 18c0 5-1 10-3 14-3 4-6 7-10 10s-9 5-15 6c-5 2-13 2-23 2-12 0-21-1-28-3-7-3-13-6-17-11s-6-11-6-18c0-10 4-17 11-23 8-6 21-9 40-9zm0 12c-16 0-27 2-33 6-5 4-8 8-8 14s3 10 8 14c6 4 17 6 33 6s27-2 33-6c5-4 8-8 8-14s-3-10-7-14c-6-4-18-6-34-6z" class="fil2"/>
  <path d="m-1436 3023c5 0 10 2 14 5 3 4 5 8 5 14 0 5-2 9-5 13-4 4-9 5-14 5s-9-1-13-5-6-8-6-13c0-6 2-10 6-14 4-3 8-5 13-5zm0 7c-3 0-6 1-8 4-2 2-3 4-3 8 0 3 1 5 3 8 2 2 5 3 8 3s6-1 8-3c3-3 4-5 4-8 0-4-1-6-4-8-2-3-5-4-8-4z" class="fil2"/>
  <path d="m-1520 2402c1-6 3-10 6-13s7-5 12-6c7-1 13 1 19 5s9 10 11 19c1 9 0 16-4 22s-10 10-17 11c-4 1-8 0-12-2-4-1-7-4-10-9-1 6-3 11-7 15s-9 7-15 8c-8 1-16 0-22-5-7-5-11-13-13-22-2-10 0-18 4-25 5-7 12-11 20-13 7-1 12 0 17 2 5 3 9 7 11 13zm20-6c-4 0-8 3-10 6-3 4-3 8-3 12 1 5 3 9 7 11 3 2 7 3 11 3 5-1 8-3 11-7 2-4 3-8 2-12-1-5-3-8-6-11-4-2-8-3-12-2zm-46 4c-3 0-6 2-9 4s-5 5-6 8c-1 4-2 7-1 11 1 6 4 10 8 13 4 4 9 5 15 4s10-4 13-9c3-4 5-9 4-15s-4-10-9-13c-4-3-9-4-15-3z" class="fil2"/>
  <path d="m-1514 2460c11-2 21-3 28-1 8 1 14 3 18 7 5 4 8 10 9 17 1 5 1 10 0 14-2 5-4 9-8 12-3 3-8 6-13 8-6 3-13 5-23 7-12 2-21 2-28 1-8-1-14-4-19-8-4-4-7-9-9-16-1-10 1-18 7-24 7-8 19-14 38-17zm2 12c-16 3-27 7-31 12-5 4-7 9-6 15 1 5 5 10 11 12 6 3 17 3 33 0 16-2 26-6 31-11s6-10 5-15c-1-6-4-10-9-12-7-3-18-4-34-1z" class="fil2"/>
  <path d="m-1468 2533c6-1 10 0 14 3 5 3 7 7 8 12 1 6 0 10-3 14-3 5-7 7-12 8s-10 0-14-3-7-7-8-12 0-10 3-14 7-7 12-8zm2 7c-3 1-6 3-8 5-2 3-2 6-2 9 1 3 3 5 5 7 3 2 6 2 9 2 3-1 5-2 7-5 2-2 3-5 2-8s-2-6-5-8c-2-2-5-2-8-2z" class="fil2"/>
  <path d="m-1634 1908l11-4 22 60-9 4c-8-4-19-7-31-9-13-2-25-3-38-2-8 1-17 3-27 5l-4-11c7-3 17-5 28-6s23-1 35 1c11 2 21 4 30 8l-17-46z" class="fil2"/>
  <path d="m-1643 1993c11-5 21-7 28-7 8 0 14 2 19 5 6 3 10 8 12 15 2 5 3 9 2 14-1 4-3 9-5 12-3 4-7 8-12 11-5 4-12 7-22 10-10 4-20 6-27 7-8 0-14-2-20-5-5-3-9-8-11-15-4-9-3-17 2-24 5-9 17-17 34-23zm5 11c-16 6-25 11-29 17-4 5-5 11-3 16s6 9 13 10c6 2 17 0 32-5 16-6 25-11 29-17 4-5 5-11 3-16s-6-9-12-10c-7-2-18 0-33 5z" class="fil2"/>
  <path d="m-1584 2056c5-1 10-1 14 1 5 2 8 6 10 11s2 9-1 14c-2 5-5 8-10 10s-10 1-15-1c-4-2-7-6-9-10-2-5-2-10 0-15 3-5 6-8 11-10zm3 7c-3 1-6 3-7 6s-1 6 0 9 3 5 6 6c2 2 5 2 8 1s5-3 7-6c1-3 1-6 0-9s-3-5-6-6c-3-2-5-2-8-1z" class="fil2"/>
  <path d="m-1835 1529l-7-10c4-3 6-6 7-9 2-4 1-9-1-13-2-3-5-6-8-7-5-2-10-3-16-2-5 1-13 4-21 8 5 1 10 2 14 5 4 2 7 6 9 10 4 7 5 14 3 22s-8 15-16 19c-5 3-11 5-17 5-6 1-11 0-16-3s-9-7-12-12c-5-8-6-18-3-27 4-9 13-18 28-27 16-9 30-13 41-11 10 1 17 6 23 16 4 6 5 13 4 20-2 6-6 12-12 16zm-62-21c-3 2-6 5-9 8-2 3-4 7-4 11s1 7 3 10c2 5 6 7 12 9 5 1 11-1 17-4 6-4 10-8 12-13 1-5 1-10-2-15s-7-8-12-9c-6-1-11-1-17 3z" class="fil2"/>
  <path d="m-1850 1554c10-5 19-9 26-11 8-1 14-1 20 1 6 3 10 7 14 13 3 5 4 9 4 14 0 4-1 9-3 13s-5 9-10 13c-4 4-10 9-19 14-10 5-19 9-26 11-8 1-14 1-20-1-6-3-10-7-14-13-5-8-6-17-2-25 4-10 14-19 30-29zm6 11c-14 8-23 16-25 22-3 6-3 11 0 16 2 5 7 7 14 8 6 1 17-3 31-11s22-16 25-22 3-11 0-16-7-7-13-8c-7-1-18 3-32 11z" class="fil2"/>
  <path d="m-1781 1607c4-2 9-3 14-2 5 2 9 5 11 9 3 5 4 9 2 14-1 5-4 9-9 12-4 2-9 3-14 2-5-2-9-5-11-9-3-5-4-9-2-14 1-5 4-9 9-12zm3 7c-2 1-4 4-5 7s0 6 1 8c2 3 4 5 7 6 3 0 6 0 9-2 2-1 4-3 5-7 1-3 1-5-1-8s-4-5-7-6c-3 0-6 0-9 2z" class="fil2"/>
  <path d="m-2198 1115l9 9c-4 5-6 9-7 14 0 5 2 9 5 13 4 4 9 6 15 7 6 0 11-2 17-7 5-4 8-9 9-15 0-6-1-11-5-16-3-3-6-5-9-6-4-1-7-2-10-1l-7-10 46-26 31 38-9 8-25-31-24 13c7 2 13 6 17 11 6 7 8 14 7 22-1 9-5 16-12 22s-14 9-23 9c-10 1-19-4-26-12-6-7-8-14-8-22 0-7 3-14 9-20z" class="fil2"/>
  <path d="m-2131 1159c9-7 17-13 24-15 7-3 14-4 20-3s11 5 16 10c3 4 6 9 6 13 1 5 1 9 0 14-2 4-4 9-8 14-3 5-9 10-16 17-9 7-17 12-24 15s-14 4-20 3c-6-2-11-5-16-10-6-8-8-16-6-24 2-11 10-22 24-34zm8 10c-12 10-19 19-21 25s-1 12 3 16c3 4 9 6 15 6 7-1 16-6 29-17 12-10 19-19 21-25 2-7 1-12-3-16-4-5-8-7-14-6-7 1-17 6-30 17z" class="fil2"/>
  <path d="m-2054 1199c4-3 9-5 14-4 5 0 9 2 13 6 3 4 4 9 4 14s-3 10-7 13-8 5-13 4c-6 0-10-2-13-6s-5-9-4-14c0-5 2-10 6-13zm5 6c-2 2-4 4-4 8 0 3 0 5 3 8 2 2 4 4 7 4s6-1 9-3c2-2 3-4 4-8 0-3-1-5-3-8-2-2-5-4-8-4s-6 1-8 3z" class="fil2"/>
  <path d="m-2536 832l15-19-33-27 7-9 76-20 8 6-42 50 11 8-8 9-10-9-15 18-9-7zm22-27l29-35-53 15 24 20z" class="fil2"/>
  <path d="m-2476 818c8-9 15-15 21-19 7-4 13-6 19-6s12 3 18 7c4 4 7 8 8 12 2 4 3 9 2 13-1 5-2 10-5 16-2 5-7 12-13 19-8 9-15 16-21 19-6 4-13 6-19 6s-12-2-18-7c-7-6-10-13-10-22 0-11 6-23 18-38zm10 9c-11 12-16 22-17 28 0 7 2 12 6 15 4 4 10 5 16 3 6-1 15-8 25-21 11-12 16-22 17-29 0-6-2-11-6-15s-9-5-15-3c-7 2-16 9-26 22z" class="fil2"/>
  <path d="m-2393 844c3-3 8-6 13-6 5-1 10 1 14 4 4 4 6 8 6 13 1 5-1 10-4 14s-8 6-13 6c-5 1-10-1-14-4s-6-8-6-13c-1-5 1-9 4-14zm6 5c-2 3-3 5-3 9 0 3 2 5 4 7 3 2 5 3 8 3 4 0 6-2 8-4s3-5 3-8c0-4-2-6-4-8-3-2-5-3-9-3-3 0-5 2-7 4z" class="fil2"/>
  <path d="m-2953 524l12 5c-3 6-3 12-2 16 2 5 4 8 9 10 5 3 10 4 15 2 6-1 10-4 13-9s3-10 2-15-5-9-9-12c-2-1-5-2-9-3l7-9 2 2c4 2 9 3 14 3s9-3 11-8c3-4 3-8 2-12s-4-7-8-9c-4-3-8-3-12-2-5 1-9 4-12 8l-10-8c6-6 12-10 18-11 7-1 14 0 21 4 5 3 8 6 11 10 3 5 4 9 4 14 1 5-1 9-3 13s-5 6-9 8c-3 2-8 3-13 2 5 5 7 9 8 15 1 5-1 10-4 16-4 7-11 12-19 14-9 2-17 1-25-4-8-4-13-10-15-18-3-7-2-14 1-22z" class="fil2"/>
  <path d="m-2875 543c6-10 12-18 18-23 5-5 11-8 17-9s13 0 19 4c4 3 8 6 10 10 3 4 4 8 4 13 1 5 0 10-2 16-1 6-5 13-9 21-6 10-12 18-18 23-5 5-11 8-17 9s-13 0-19-4c-8-5-13-11-14-20-2-11 2-24 11-40zm11 6c-8 14-12 25-11 31 1 7 3 12 8 14 5 3 10 3 16 0 6-2 14-11 22-25s12-24 11-31-3-11-8-14-10-3-15-1c-7 3-15 12-23 26z" class="fil2"/>
  <path d="m-2789 554c3-4 7-7 12-9 5-1 10 0 14 2 5 3 8 7 9 12s1 9-2 14c-3 4-6 7-11 9-5 1-10 0-15-2-4-3-7-6-8-12-2-5-1-9 1-14zm7 4c-2 3-2 5-1 9 1 3 2 5 5 7 3 1 6 1 9 1 3-1 5-3 7-6 1-2 2-5 1-8s-3-6-5-7c-3-2-6-2-9-1-3 0-6 2-7 5z" class="fil2"/>
  <path d="m-3340 371l-4 11-62-22c1-3 2-5 4-8 3-3 7-6 12-9s12-6 20-9c14-5 23-9 28-12 6-4 9-8 11-12 1-5 1-9-1-13-2-5-6-8-11-10-6-2-11-2-15 0-5 3-8 7-10 12l-12-5c4-9 10-14 17-17s15-2 24 1 15 8 18 15c4 7 4 14 1 21-1 4-3 8-6 11s-7 6-12 8c-5 3-13 6-23 10-9 4-15 6-18 7-3 2-5 3-7 5l46 16z" class="fil2"/>
  <path d="m-3315 341c4-11 8-20 13-26s10-10 16-12 12-1 19 1c5 2 9 5 12 8s5 7 6 12 1 10 1 16c-1 6-3 14-6 23-4 11-9 19-13 25-5 6-10 10-16 12s-12 2-19 0c-9-4-15-10-18-18-3-10-2-24 5-41zm12 4c-6 15-8 26-6 33 2 6 5 10 10 12 6 2 11 1 16-3 6-4 11-13 17-28 6-16 7-27 6-33-2-6-6-10-11-12s-10-2-15 2c-6 4-12 14-17 29z" class="fil2"/>
  <path d="m-3228 337c1-5 5-9 9-11 5-2 10-2 15 0 5 1 8 5 10 9 2 5 3 10 1 15s-5 8-10 10c-5 3-9 3-14 1s-9-5-11-10c-2-4-2-9 0-14zm6 2c-1 3-1 6 1 9 1 3 3 5 6 6s6 1 9 0c3-2 5-4 6-7s1-6 0-9c-2-2-4-4-7-5s-6-1-9 0c-2 1-4 3-6 6z" class="fil2"/>
  <path d="m-3824 261l-12-2 14-77c-3 3-8 5-13 7s-10 3-14 4l2-12c8-2 14-5 20-8 6-4 10-8 13-12l8 2-18 98z" class="fil2"/>
  <path d="m-3784 218c2-11 5-20 8-27 4-7 8-12 14-15 5-3 11-3 18-2 6 1 10 3 14 5 3 3 6 7 8 11 2 5 3 10 3 16 1 6 0 14-1 24-2 11-5 20-9 27-3 6-8 11-13 14-6 3-12 4-19 3-10-2-16-7-21-14-5-10-5-23-2-42zm12 2c-3 16-3 28 0 34 3 5 7 9 13 10 5 1 10-1 15-6 5-4 8-15 11-31s3-27 0-33-7-9-12-10c-6-1-11 0-15 4-5 6-9 16-12 32z" class="fil2"/>
  <path d="m-3699 199c0-5 3-9 7-12 5-3 9-4 14-3s9 4 12 8 4 9 4 14c-1 5-4 9-8 12s-9 4-14 3-9-3-12-8c-3-4-4-8-3-14zm7 2c-1 3 0 6 2 8 1 3 4 4 7 5 3 0 6 0 9-2 2-2 4-4 4-7 1-3 0-6-2-9-1-3-4-4-7-5-3 0-6 0-9 2-2 2-4 5-4 8z" class="fil2"/>
  <rect class="fil3" height="299" width="239" y="450" x="-4369"/>
  <path d="m-4325 483h38l70 145v-145h42v232h-38l-70-145v145h-42v-232z" class="fil4"/>
  <path d="m-4250 253l60 98 59 99h-119-119l59-99 60-98z" class="fil2 str2"/>
  <path d="m-6760 3079v-238h299v238h-299z" class="fil5"/>
  <path d="m-6495 2940l-145 18v3l145 19v39l-232 44v-47l153-14v-4l-153-21v-34l153-22v-3l-153-14v-47l232 44v39z" class="fil6"/>
  <path d="m-6957 2960l98-60 99-59v119 119l-99-59-98-60z" class="fil1 str2"/>
  <path d="m-1740 2841v238h-299v-238h299z" class="fil7"/>
  <path d="m-1773 2886v145h-44v-97h-46v87h-45v-87h-53v99h-44v-147h232z" class="fil8"/>
  <path d="m-1543 2960l-98 60-99 59v-119-119l99 59 98 60z" class="fil1 str2"/>
  <path d="m-4131 5470h-238v-299h238v299z" class="fil9"/>
  <path d="m-4170 5274h-51v-2c0-9-2-16-8-21-5-6-12-9-21-9-8 0-15 3-21 8-5 5-8 11-8 19s3 14 8 18c5 5 17 9 37 13 27 5 46 13 56 23s15 24 15 43c0 24-8 43-24 56-16 14-37 21-65 21-25 0-46-7-61-22s-23-35-24-61h50c0 12 4 22 11 29 6 7 15 11 26 11s20-3 27-9c6-5 9-13 9-22 0-14-15-25-46-31-4-1-7-2-9-2-21-5-37-12-46-22-10-10-14-24-14-42 0-22 7-39 21-53 14-13 33-20 56-20 26 0 46 7 60 20 15 13 22 31 22 55z" class="fil10"/>
  <path d="m-4250 5667l-60-98-59-99h119 119l-59 99-60 98z" class="fil1 str2"/>
  <path d="m-2560 1095l169 168-212 212-168-169 211-211z" class="fil11"/>
  <path d="m-2337 1040l-27 112-27 111-85-84-84-84 112-28 111-27z" class="fil1 str2"/>
  <path d="m-2610 1424l-111-110 18-17 132 48-91-90 14-14 110 111-17 17-133-48 91 90-13 13zm98-98l-110-111 69-68 13 13-54 54 33 33 49-49 14 13-50 49 38 38 55-56 13 14-70 70z" class="fil12"/>
  <path d="m-2390 4651l-169 169-212-212 169-169 212 212z" class="fil13"/>
  <path d="m-2336 4874l-112-27-111-27 84-85 85-84 27 111 27 112z" class="fil1 str2"/>
  <path d="m-2671 4577c-8 8-12 16-12 26 0 9 4 18 12 26 7 7 15 11 23 12s15-2 21-8c8-8 7-22-4-42-3-4-4-7-6-9-9-16-13-28-13-37 1-8 5-16 12-24 10-9 21-14 34-14 12 1 24 6 34 17 12 12 18 24 19 37 0 13-5 25-17 36l-15-14c7-8 11-16 11-24s-4-15-10-22c-7-6-13-9-20-10s-13 2-19 7c-5 5-7 11-7 16s5 15 14 30c11 18 16 31 16 40s-4 17-12 26c-11 10-23 15-37 15-13-1-26-7-38-19-12-13-18-26-18-40 0-13 6-27 18-40l14 15zm51 124l111-111 68 69-13 13-54-54-33 33 49 50-13 13-49-49-38 37 56 55-14 14-70-70z" class="fil14"/>
  <path d="m-5941 4820l-169-169 212-212 169 169-212 212z" class="fil15"/>
  <path d="m-6164 4874l27-112 27-111 85 84 84 85-111 27-112 27z" class="fil1 str2"/>
  <path d="m-5978 4725c8 9 17 12 26 12s18-4 26-12c7-7 11-14 12-22s-2-16-8-22c-8-8-22-6-42 5-4 2-7 4-9 5-16 9-28 14-37 13-8 0-16-4-23-11-10-10-15-21-14-34 0-12 5-24 16-34 12-12 24-19 37-19s25 5 36 16v1l-14 14c-8-7-16-10-24-10-7 0-15 3-22 10-6 6-9 13-10 20 0 7 2 13 7 18 6 6 11 8 16 8 5-1 16-5 30-15 18-10 31-16 40-16s17 5 26 13c11 11 16 23 15 36-1 14-7 26-19 38-13 13-26 19-39 19-14 0-28-6-41-18l15-15zm127-54l-130-91 13-14 108 81-78-110 13-13 110 78-80-108 13-13 91 130-14 14-112-80 80 112-14 14z" class="fil16"/>
  <path d="m-6110 1269l169-169 212 212-169 169-212-212z" class="fil17"/>
  <path d="m-6164 1046l112 27 111 27-84 85-85 84-27-111-27-112z" class="fil1 str2"/>
  <path d="m-6065 1256l111-111 17 17-49 133 91-91 13 14-110 110-17-17 48-133-91 91-13-13zm102 102l92-130 13 13-81 108 110-79 14 14-79 110 108-81 13 13-130 91-14-13 80-112-112 80-14-14z" class="fil18"/>
  <path d="m-1952 1949l42 101-276 114-42-101 276-114z" class="fil19"/>
  <path d="m-1749 1924l-81 63-80 63-21-51-21-50 102-12 101-13z" class="fil1 str2"/>
  <path d="m-2135 2124l-28-68 42-18 4 9-34 13 9 21 30-13 3 8-30 13 10 23 34-14 3 8-43 18zm57-24l-28-68 11-4 48 45-23-56 8-3 28 68-10 4-49-45 23 56-8 3zm60-25l-28-68 43-17 3 8-33 14 8 20 30-13 4 9-30 12 9 23 34-14 3 8-43 18z" class="fil2"/>
  <path d="m-3340 620l101 42-114 276-101-42 114-276z" class="fil20"/>
  <path d="m-3214 459l-13 101-12 102-50-21-51-21 63-80 63-81z" class="fil1 str2"/>
  <path d="m-3346 874l-68-28 4-11 67-2-56-23 3-9 68 28-4 11-66 3 55 23-3 8zm24-59l-68-28 5-11 66-2-56-23 4-8 67 28-4 10-66 3 55 23-3 8zm25-60l-68-28 18-42 8 3-14 33 21 8 12-30 8 4-12 30 23 9 14-34 8 4-18 43z" class="fil2"/>
  <path d="m-1910 3870l-42 101-276-114 42-101 276 114z" class="fil21"/>
  <path d="m-1749 3996l-101-13-102-12 21-50 21-51 80 63 81 63z" class="fil1 str2"/>
  <path d="m-2163 3864l28-68 42 18-3 8-33-14-9 21 31 12-4 8-30-12-10 23 34 14-3 8-43-18zm73 4c-2 5-2 10 0 14 1 4 5 7 9 9 5 2 9 2 13 1 3-1 6-4 7-7 2-5-1-11-9-18-2-1-3-2-4-3-7-5-11-10-12-13-2-4-1-8 0-13 3-6 7-10 12-12 6-2 12-1 18 1 8 3 13 7 15 13 2 5 2 12-1 18v1l-9-4c2-5 2-9 1-12-2-3-5-6-9-8-4-1-7-2-10-1s-5 4-7 7c-1 3-1 6 0 8s5 6 11 10c8 6 13 11 14 15 2 4 2 8 0 13-3 7-7 11-13 13s-13 2-20-1c-8-3-13-8-15-14-3-6-3-13 0-21l9 4zm44 45l28-68 43 17-4 9-33-14-8 20 30 13-3 8-31-13-9 23 34 14-4 8-43-17z" class="fil2"/>
  <path d="m-3239 5258l-101 42-114-276 101-42 114 276z" class="fil22"/>
  <path d="m-3214 5461l-63-81-63-80 51-21 50-21 12 102 13 101z" class="fil1 str2"/>
  <path d="m-3388 5073c-5 2-8 5-10 9s-2 9 0 13c2 5 5 8 8 10 4 1 7 2 11 0 5-2 7-8 5-19v-5c-1-8-1-14 0-18 2-4 5-6 10-8 6-3 12-3 17 0 5 2 9 7 12 13 3 7 3 14 1 19-2 6-6 10-13 13l-4-9c4-2 7-5 9-8 1-3 1-7-1-11s-4-7-7-8c-3-2-6-2-9-1-3 2-5 4-6 6s-1 8 1 16c1 9 1 16 0 20-2 3-5 6-11 9-6 2-12 2-18 0-6-3-10-8-13-16-3-7-3-14-1-20s7-11 15-14l4 9zm24 58c-5 3-8 6-10 10s-1 8 1 13 4 8 7 9c4 2 7 2 11 1 5-2 7-9 6-19-1-2-1-4-1-5-1-9-1-15 1-18 1-4 5-7 9-9 6-2 12-2 17 0 6 3 10 7 12 14 3 7 4 13 2 19-3 6-7 10-14 13l-4-9c5-2 7-5 9-8 1-4 1-8-1-12-1-4-3-6-6-8-3-1-6-1-10 0-3 1-5 3-6 6 0 2 0 7 1 15 2 10 2 16 0 20s-5 7-10 9c-7 3-13 3-19 0-5-2-10-8-13-15s-3-14-1-20c3-6 8-11 15-14l4 8zm0 63l68-28 17 42-8 4-14-33-20 8 12 30-8 4-12-31-23 10 14 34-8 3-18-43z" class="fil2"/>
  <path d="m-5160 5300l-101-42 114-276 101 42-114 276z" class="fil23"/>
  <path d="m-5286 5461l13-101 12-102 50 21 51 21-63 80-63 81z" class="fil1 str2"/>
  <path d="m-5174 5223c5 2 10 2 14 0 4-1 7-5 9-9 2-5 2-9 1-13-1-3-4-6-7-7-5-2-11 1-18 9-1 2-2 3-3 4-5 7-10 11-13 12-4 2-8 1-13 0-6-3-10-7-12-12-2-6-2-12 1-18 3-8 7-13 13-15 5-2 12-2 18 1h1l-4 9c-5-2-9-2-12-1-3 2-6 5-8 9-1 4-2 7-1 10s3 5 7 7c3 1 6 1 8 0s6-5 10-12c6-7 11-12 15-14 3-1 8-1 13 1 7 3 11 7 13 13s2 13-1 20c-3 8-8 13-14 15-6 3-13 3-21 0l4-9zm24-59c5 2 10 2 14 1 4-2 7-5 9-10s2-9 1-12c-1-4-3-6-7-8-5-2-11 1-17 10-2 1-3 3-3 4-6 6-10 10-14 12-4 1-8 1-12-1-6-3-10-7-12-12-3-6-2-12 0-18 3-7 8-12 13-15 6-2 12-2 19 1l-4 9c-4-2-8-2-12 0-3 1-6 4-7 8-2 4-2 7-1 10 1 4 3 6 6 7s6 2 8 0c2-1 6-5 11-11 5-8 10-13 14-14 4-2 8-1 14 1s10 7 13 13c2 6 1 12-2 20-3 7-8 12-14 15-5 2-12 2-20-1l3-9zm46-46l-73-17 4-8 61 16-54-33 3-9 62 14-54-32 3-8 63 40-3 8-63-14 54 34-3 9z" class="fil2"/>
  <path d="m-6548 3971l-42-101 276-114 42 101-276 114z" class="fil24"/>
  <path d="m-6751 3996l81-63 80-63 21 51 21 50-102 12-101 13z" class="fil1 str2"/>
  <path d="m-6494 3929l-40-63 8-3 32 54-14-61 8-4 34 54-16-61 8-4 16 73-8 3-34-54 14 63-8 3zm52-48c2 5 5 9 9 10 4 2 9 2 14 0 4-2 7-5 9-8s2-7 0-11c-2-5-8-7-19-5h-4c-9 1-15 1-19 0-3-2-6-5-8-10-2-6-2-12 0-17 3-5 7-9 13-12 8-3 14-3 20-1 5 2 10 6 13 13v1l-9 3c-2-4-5-7-9-8-3-2-7-2-11 0s-6 4-8 7c-1 3-2 6 0 9 1 3 3 5 5 6 3 1 8 1 16-1 9-1 16-1 20 0 4 2 7 5 9 11 3 6 3 12 0 18s-8 10-15 13c-8 3-14 3-20 1s-11-7-15-15l9-4zm65 0l-40-63 8-4 33 54-15-61 9-4 33 54-15-61 7-3 17 72-9 4-34-55 15 63-9 4z" class="fil2"/>
  <path d="m-6590 2050l42-101 276 114-42 101-276-114z" class="fil25"/>
  <path d="m-6751 1924l101 13 102 12-21 50-21 51-80-63-81-63z" class="fil1 str2"/>
  <path d="m-6522 2058l16-72 8 3-15 61 33-53 8 3-14 62 32-54 8 3-40 63-8-4 14-63-34 55-8-4zm55 23l28-67 10 4 3 66 23-55 8 3-28 68-10-5-3-66-23 56-8-4zm62 26l16-72 8 3-15 61 33-54 9 4-14 61 32-54 8 3-40 63-9-3 15-63-34 55-9-4z" class="fil2"/>
  <path d="m-5261 662l101-42 114 276-101 42-114-276z" class="fil26"/>
  <path d="m-5286 459l63 81 63 80-51 21-50 21-12-102-13-101z" class="fil1 str2"/>
  <path d="m-5222 708l67-28 5 11-45 48 55-22 4 8-68 28-4-11 44-49-55 23-3-8zm24 59l68-28 4 11-45 48 56-23 3 8-68 28-4-10 45-49-56 23-3-8zm26 62l63-39 3 8-54 32 61-14 4 8-54 34 61-16 4 8-73 16-4-8 55-35-63 15-3-9z" class="fil2"/>
  <path d="m-3814 487l107 21-58 294-107-22 58-293z" class="fil27"/>
  <path d="m-3722 305l8 102 7 101-53-10-54-11 46-91 46-91z" class="fil1 str2"/>
  <path d="m-3770 742l-74-15 2-12 67-16-61-12 1-9 75 14-2 12-67 16 61 13-2 9zm-8-112c-7-1-12-1-17 1-4 2-7 5-8 9-1 5 0 9 4 12 3 4 8 6 16 8 7 1 13 1 17-1s7-5 8-10c1-4 0-8-4-12-3-3-9-5-16-7zm15 34l9 1-2 10-78-15 2-10 29 6c-4-3-6-6-7-9-2-3-2-7-1-10 1-7 5-12 12-15 6-3 14-3 23-1 10 1 17 5 22 10s6 11 5 18c-1 4-2 7-5 9-2 3-5 4-9 6zm20-54l-75-15 9-47 9 2-7 37 22 4 7-33 9 2-7 33 26 5 7-37 9 1-9 48z" class="fil2"/>
  <path d="m-2901 842l91 61-166 249-91-61 166-249z" class="fil28"/>
  <path d="m-2746 709l-32 97-32 97-45-30-46-31 78-66 77-67z" class="fil1 str2"/>
  <path d="m-2975 1122l-64-43 7-10 68 11-52-35 5-7 63 42-6 10-68-11 52 35-5 8zm37-57l-63-42 26-40 8 5-21 31 19 13 19-28 8 5-19 28 21 14 22-31 7 5-27 40zm34-104c-5-4-11-6-16-6s-8 2-11 5c-2 4-3 9-1 13s6 8 12 13c6 4 12 6 16 6 5 0 9-2 11-6 3-4 3-8 1-13-2-4-6-8-12-12zm1 36l7 5-5 8-66-44 6-8 24 16c-2-3-3-7-3-10 0-4 1-7 3-10 4-6 9-9 16-9s15 2 23 8c8 5 13 11 16 18 2 6 1 12-2 18-2 3-5 5-8 7-3 1-7 2-11 1zm38-40l-64-43 7-10 68 11-52-35 5-7 64 42-7 10-68-11 52 35-5 8z" class="fil2"/>
  <path d="m-2193 1520l61 91-249 166-61-91 249-166z" class="fil29"/>
  <path d="m-1999 1456l-67 77-66 78-31-46-30-45 97-32 97-32z" class="fil1 str2"/>
  <path d="m-2369 1749l-42-63 9-7 59 36-35-52 8-5 43 64-10 6-59-36 34 52-7 5zm57-37l-43-64 40-26 5 7-31 21 12 19 29-19 5 8-28 19 14 21 32-21 5 8-40 27zm71-84c-4-6-8-10-13-12-4-1-8-1-12 1-4 3-6 7-6 12 0 4 2 10 6 16s8 10 13 12c4 2 8 1 12-1 4-3 6-7 6-12 0-4-2-10-6-16zm-14 34l5 8-8 5-43-66 8-5 16 24c-1-4 0-8 1-11s4-6 7-8c5-4 12-4 18-2 7 3 13 8 18 16 6 8 8 15 8 22 0 8-4 13-9 17-3 2-7 3-10 3s-7-1-11-3zm53-24l-43-63 40-27 5 8-31 21 12 19 29-19 5 7-28 19 14 22 32-22 5 8-40 27z" class="fil2"/>
  <path d="m-1798 2417l21 107-293 58-22-107 294-58z" class="fil30"/>
  <path d="m-1595 2432l-91 46-91 46-11-54-10-53 101 7 102 8z" class="fil1 str2"/>
  <path d="m-2015 2555l-15-75 46-9 2 9-37 7 5 22 33-6 2 9-33 6 5 26 37-8 2 9-47 10zm97-50c-1-7-3-12-7-16-3-3-7-4-12-3-4 0-8 3-9 7-2 5-2 11-1 18 2 7 4 13 7 16 4 3 8 4 12 3 5 0 8-3 10-8 2-4 2-10 0-17zm-25 26l2 9-10 2-15-78 9-1 6 28c1-4 3-7 5-10 3-2 6-4 9-4 7-2 13 0 18 5 6 5 9 12 11 21 2 10 1 18-2 24s-7 10-14 12c-4 0-7 0-10-1-4-1-6-4-9-7zm55-2l-14-75 11-2 41 56-12-62 9-1 15 74-12 3-41-56 12 61-9 2z" class="fil2"/>
  <path d="m-1777 3396l-21 107-294-58 22-107 293 58z" class="fil31"/>
  <path d="m-1595 3488l-102 8-101 7 10-53 11-54 91 46 91 46z" class="fil1 str2"/>
  <path d="m-2032 3440l15-74 47 9-2 9-37-7-4 22 33 7-1 9-34-7-5 25 38 8-2 9-48-10zm110-8c1-7 1-13-1-17-2-5-5-7-9-8-5-1-9 0-12 3-4 4-6 9-8 16-1 8-1 13 1 18 2 4 5 7 10 8 4 1 8-1 12-4 3-4 5-9 7-16zm-34 14l-1 9-10-2 15-77 10 2-6 28c3-3 6-5 9-7 3-1 7-1 10 0 7 1 12 5 15 11 3 7 3 14 2 24-2 9-6 17-11 21-5 5-11 7-18 6-4-1-7-3-9-5-3-3-4-6-6-10zm65-3c-1 5-1 10 2 14 3 3 7 6 12 7s9 0 12-1c4-2 6-5 7-9 1-6-3-11-13-16-2-1-4-2-5-2-8-5-13-8-15-12-2-3-3-7-2-13s5-11 10-14c5-4 11-5 18-3 8 1 14 5 18 10s5 11 3 19l-10-2c1-5 0-9-2-12s-5-5-10-6c-4-1-8-1-11 1s-5 4-5 8c-1 3-1 6 1 8 1 2 6 5 14 9 9 4 15 8 17 11 3 4 3 9 2 14-1 8-5 13-11 16-5 4-12 4-20 3-9-2-15-5-18-11-4-6-5-13-4-21l10 2z" class="fil2"/>
  <path d="m-2132 4309l-61 91-249-166 61-91 249 166z" class="fil32"/>
  <path d="m-1999 4464l-97-32-97-32 30-45 31-46 66 78 67 77z" class="fil1 str2"/>
  <path d="m-2390 4218c-4 5-5 10-4 14 1 5 4 8 9 11 4 3 8 4 12 4s7-2 9-6c3-5 1-11-6-19l-4-4c-5-7-9-13-9-17-1-4 0-8 3-12 4-6 9-9 15-10s12 1 18 5c7 4 11 9 12 16 2 6 0 12-4 18v1l-9-6c3-4 4-9 3-12-1-4-3-7-7-10-3-2-7-3-10-3-4 1-6 2-8 5s-3 6-2 9c0 2 3 7 9 13 7 7 11 13 12 17s-1 9-4 14c-4 6-9 10-16 10-6 1-13 0-20-5s-11-10-13-17c-1-7 1-14 5-21l9 5zm36 55l42-63 40 26-5 8-31-21-13 19 28 19-5 7-28-19-15 22 32 21-5 8-40-27zm104 34c4-6 6-11 6-16s-2-9-5-11c-4-3-9-3-13-1-4 1-9 5-13 11-4 7-6 12-6 17s2 8 6 11 8 3 12 1c5-2 9-6 13-12zm-36 0l-5 8-8-5 44-66 8 5-16 24c3-2 7-2 10-2 4 0 7 1 10 3 6 3 9 9 9 16s-2 15-8 23c-5 8-11 13-18 15-6 3-13 2-18-2-3-2-6-4-7-8-1-3-2-6-1-11zm42 39l42-63 40 26-5 8-31-21-13 19 28 19-5 8-28-19-15 21 32 22-5 7-40-27z" class="fil2"/>
  <path d="m-2810 5017l-91 61-166-249 91-61 166 249z" class="fil33"/>
  <path d="m-2746 5211l-77-67-78-66 46-31 45-30 32 97 32 97z" class="fil1 str2"/>
  <path d="m-3014 4833c-5 4-7 7-8 12-1 4 0 9 3 13 3 5 6 7 10 8s7 1 11-1c4-4 5-10 1-21 0-2-1-4-1-5-3-8-4-15-3-19 1-3 4-7 8-10 6-4 11-5 17-3 6 1 11 5 15 11 5 7 7 13 6 19s-5 12-12 16l-5-8c4-3 6-7 7-11 0-3 0-7-3-11s-5-6-9-7c-3-1-6 0-9 2s-5 4-5 7c0 2 1 8 4 16 3 9 5 16 4 20s-4 8-9 11c-6 4-12 6-19 4-6-2-11-6-16-13s-6-14-5-20c1-7 5-13 12-18l6 8zm13 65l63-43 26 40-7 5-21-31-19 13 19 28-8 5-19-28-21 14 21 32-8 5-26-40zm83 71c6-4 10-8 12-13 1-4 1-8-1-12-3-4-7-6-12-6-4 0-10 2-16 6s-10 9-12 13-1 9 2 13c2 3 6 5 11 5 4 0 10-2 16-6zm-34-14l-7 6-6-8 66-44 5 8-24 16c4-1 8 0 11 1 3 2 6 4 8 7 4 5 4 12 2 18-2 7-8 13-16 18-8 6-15 8-22 8s-13-3-17-9c-2-3-3-6-3-10 0-3 1-7 3-11zm48 43c-4 4-7 7-8 12-1 4 0 9 3 14 3 4 6 6 10 7 4 2 7 1 11-1 5-4 5-10 2-21-1-2-2-4-2-5-3-8-4-15-3-18 1-4 4-8 8-11 6-4 12-5 18-3 6 1 10 5 15 11 4 7 6 13 5 19s-5 12-11 16h-1l-5-8c4-3 6-7 7-10 1-4 0-8-3-12-2-4-5-6-8-7-4-1-7 0-10 2s-5 4-5 7c0 2 1 8 4 16 4 9 5 16 4 20s-4 8-9 11c-6 4-12 6-18 4-7-2-12-6-17-13-4-7-6-14-5-20 1-7 6-13 13-18l5 8z" class="fil2"/>
  <path d="m-3707 5412l-107 21-58-293 107-22 58 294z" class="fil34"/>
  <path d="m-3722 5615l-46-91-46-91 54-11 53-10-7 101-8 102z" class="fil1 str2"/>
  <path d="m-3818 5197c-6 1-10 4-12 8-3 3-4 8-3 13s3 9 6 12c3 2 7 3 11 2 6-1 9-7 10-18v-5c1-9 2-15 5-19 2-3 6-5 11-6 7-2 12 0 17 3 5 4 8 9 10 16 1 8 1 15-3 20-3 6-9 9-16 10v1l-2-10c5-2 8-4 10-7s3-7 2-12c-1-4-3-7-5-9-3-2-6-3-10-2-3 0-6 2-7 4s-2 8-2 16c-1 10-2 17-4 21-3 3-7 6-13 7-7 1-13 0-19-4-5-4-8-10-10-18-1-8 0-15 3-21 4-6 10-10 19-12l2 10zm23 97c7-1 13-3 16-7 3-3 5-7 4-12-1-4-4-8-8-9-4-2-10-2-18-1-7 2-12 4-15 7-4 4-5 8-4 12 1 5 4 8 8 10 5 2 10 2 17 0zm-26-25l-9 2-1-10 77-15 2 9-28 6c4 1 7 3 9 5 2 3 4 6 5 9 1 7-1 13-5 18-5 6-12 9-22 11-9 2-17 1-24-2-6-3-10-7-11-14-1-4-1-7 1-10 1-4 3-6 6-9zm3 57l74-15 10 47-9 2-8-37-22 5 6 33-8 2-7-34-25 5 7 38-9 2-9-48z" class="fil2"/>
  <path d="m-4686 5433l-107-21 58-294 107 22-58 293z" class="fil35"/>
  <path d="m-4778 5615l-8-102-7-101 53 10 54 11-46 91-46 91z" class="fil1 str2"/>
  <path d="m-4715 5363c6 1 11 1 14-2 4-3 7-7 8-12s0-9-2-13c-2-3-5-5-9-6-5-1-10 3-15 13-1 2-2 4-3 5-4 8-7 13-11 15-3 2-8 3-13 2-7-2-11-5-15-10-3-5-4-11-2-18 1-9 5-14 10-18s11-5 19-3l-2 10c-5-1-9 0-12 2s-6 5-6 10c-1 4-1 8 1 11 1 3 4 5 8 5 3 1 6 1 8-1 2-1 5-6 8-14 5-9 8-15 12-17 4-3 8-3 14-2 7 1 13 5 16 11 3 5 4 12 3 20-2 9-6 15-11 18-6 4-13 5-21 4l1-10zm16-99c-7-1-13-1-18 1-4 2-7 5-8 9-1 5 1 9 4 13 3 3 9 5 16 7 7 1 13 1 17-1 5-2 7-5 8-10 1-4 0-8-4-12-3-3-8-5-15-7zm14 34l9 2-2 9-77-15 1-10 29 6c-3-3-6-6-7-9s-2-6-1-10c1-7 5-12 12-15 6-3 14-3 24-1 9 2 16 5 21 10s7 12 5 18c-1 4-2 7-5 9-2 3-5 5-9 6zm20-56l-77-2 2-9 65 3-61-23 1-9 66 2-62-22 2-9 72 28-1 9-68-2 63 24-2 10z" class="fil2"/>
  <path d="m-5599 5078l-91-61 166-249 91 61-166 249z" class="fil36"/>
  <path d="m-5754 5211l32-97 32-97 45 30 46 31-78 66-77 67z" class="fil1 str2"/>
  <path d="m-5615 5027c4 3 9 4 13 4 5-1 9-4 12-9 2-4 4-8 3-12 0-4-2-7-6-9-4-3-11-1-19 6l-4 4c-7 5-12 9-16 9-4 1-9 0-13-3-6-4-9-9-10-15s1-12 5-18c4-7 10-11 16-12 6-2 12 0 19 4l-6 8c-4-2-8-3-12-2s-7 3-10 7c-2 3-3 7-3 10 1 4 2 6 5 8s6 3 9 2c2 0 7-4 13-9 7-7 13-11 17-12 5-1 9 1 14 4 6 4 10 9 11 16 0 6-1 13-6 20s-10 11-17 12c-6 2-14 0-21-4l6-9zm55-38l-70-31 5-8 59 28-48-45 5-8 60 28-49-44 5-8 56 54-5 8-61-28 49 46-6 8zm33-102c-6-4-11-6-16-6s-8 2-11 5c-3 4-3 9-1 13 1 4 5 8 12 13 6 4 11 6 16 6s8-2 11-6 3-8 1-13c-2-4-6-8-12-12zm1 36l7 5-5 8-66-44 5-8 25 16c-2-3-3-7-3-10 0-4 1-7 3-10 4-6 9-9 16-9s15 2 23 8c8 5 13 11 15 18 3 6 2 12-2 18-2 3-4 5-7 7-4 1-7 2-11 1zm21-61c4 3 9 4 14 4 4-1 8-4 11-9 3-4 4-8 3-12 0-4-2-7-5-9-5-3-12-1-20 6-2 2-3 3-4 3-7 6-12 10-16 10-4 1-8 0-13-3-5-4-9-9-10-15s1-12 5-18c5-7 10-11 16-12 6-2 12 0 19 4l-6 8c-4-2-8-3-12-2s-7 3-9 7c-3 3-4 7-3 10 0 4 2 6 5 8s6 3 8 2c3 0 7-4 13-9 7-7 13-11 18-12 4-1 8 1 13 4 6 4 10 9 11 16 1 6-1 13-6 20-4 7-10 11-17 12-6 2-13 0-21-4l6-9z" class="fil2"/>
  <path d="m-6307 4400l-61-91 249-166 61 91-249 166z" class="fil37"/>
  <path d="m-6501 4464l67-77 66-78 31 46 30 45-97 32-97 32z" class="fil1 str2"/>
  <path d="m-6305 4349c3 5 7 8 11 8 5 1 9 0 14-3 4-3 6-6 8-10 1-3 0-7-2-11-3-4-10-5-21-1-2 0-3 1-5 1-8 3-14 4-18 3s-8-3-11-8-5-11-3-17c1-6 5-11 11-15 7-5 13-6 20-5 6 1 11 4 15 11l-8 6c-3-4-7-7-10-8-4 0-8 1-12 3-3 3-6 5-7 9 0 3 0 6 2 9s4 5 7 5c3 1 8-1 16-4 9-3 16-5 20-4 5 1 8 4 12 9 4 6 5 12 3 19-1 6-6 12-13 16-7 5-13 7-20 5-7-1-13-5-18-12l9-6zm66-14l-54-56 8-5 44 49-27-60 8-5 45 48-28-60 7-5 31 71-8 6-46-49 28 61-8 5zm69-82c-4-6-8-10-12-11-5-2-9-2-13 0-4 3-6 7-6 12 0 4 2 10 7 16 4 6 8 10 12 12 5 2 9 1 13-1 4-3 6-7 5-11 0-5-2-11-6-17zm-13 34l5 8-8 5-44-66 8-5 16 24c0-4 0-8 1-11 2-3 4-6 7-8 6-4 12-4 19-2 6 3 12 8 18 16 5 8 7 15 7 22 0 8-3 13-9 17-3 2-6 3-10 3-3 0-7-1-10-3zm54-25l-53-56 7-5 44 48-27-60 8-5 45 48-28-59 7-5 31 71-8 5-46-49 28 61-8 6z" class="fil2"/>
  <path d="m-6702 3503l-21-107 293-58 22 107-294 58z" class="fil38"/>
  <path d="m-6905 3488l91-46 91-46 11 54 10 53-101-7-102-8z" class="fil1 str2"/>
  <path d="m-6640 3475l-28-73 9-2 22 62-2-65 9-2 23 61-3-65 9-2 1 78-9 1-24-62 2 67-9 2zm96-50c-2-7-4-12-8-15-3-4-7-5-11-4-5 1-9 3-10 8-2 4-2 10-1 17 2 8 4 13 7 16 4 4 8 5 13 4 4-1 7-4 9-8 2-5 2-11 1-18zm-26 26l2 9-10 2-15-77 9-2 6 28c1-4 3-7 6-9 2-3 5-4 9-5 6-1 12 0 18 5 5 5 8 12 10 21 2 10 2 18-1 24-3 7-8 11-15 12-4 1-7 0-10-1s-6-3-9-7zm58-28c1 6 4 10 8 12 3 3 8 4 13 3s9-3 11-6c3-4 4-7 3-11-1-6-7-9-18-10h-6c-8-1-15-2-18-5-3-2-5-6-6-11-2-7-1-12 3-17s9-8 16-10c8-1 15-1 20 3 5 3 9 8 10 16l-9 2c-2-5-4-8-7-10s-7-3-12-2c-4 1-7 2-9 5-3 3-3 6-2 10 0 3 2 6 4 7s8 2 16 2c10 1 17 2 20 4 4 3 6 7 8 13 1 7 0 13-4 18-4 6-10 9-18 11-9 1-16 0-21-3-6-4-10-10-12-19l10-2z" class="fil2"/>
  <path d="m-6723 2524l21-107 294 58-22 107-293-58z" class="fil39"/>
  <path d="m-6905 2432l102-8 101-7-10 53-11 54-91-46-91-46z" class="fil1 str2"/>
  <path d="m-6654 2521l2-77 9 1-4 66 24-62 9 2-2 66 22-62 9 2-29 72-9-2 2-67-23 63-10-2zm107-9c2-7 1-13 0-17-2-5-5-7-10-8s-9 0-12 3c-3 4-6 9-7 16-2 8-1 13 0 18 2 4 5 7 10 8s9-1 12-4c3-4 6-9 7-16zm-33 14l-2 9-10-2 16-77 9 2-5 28c2-3 5-5 9-7 3-1 6-1 9 0 7 1 12 5 15 11 3 7 4 15 2 24-2 10-6 17-11 22-5 4-11 6-18 5-3-1-6-3-9-5-2-2-4-6-5-10zm52 20l15-75 11 3 16 66 13-61 9 2-15 75-12-3-16-67-12 62-9-2z" class="fil2"/>
  <path d="m-6368 1611l61-91 249 166-61 91-249-166z" class="fil40"/>
  <path d="m-6501 1456l97 32 97 32-30 45-31 46-66-78-67-77z" class="fil1 str2"/>
  <path d="m-6341 1609l42-64 10 7-11 68 35-52 8 5-43 64-10-7 11-68-35 52-7-5zm58 39l32-71 7 5-28 59 45-48 8 6-27 60 44-49 7 5-54 56-7-5 27-62-46 49-8-5zm103 33c4-6 6-12 6-16 0-5-2-9-6-11-4-3-8-4-13-2-4 2-8 6-12 12s-7 12-7 16c0 5 2 9 7 12 3 2 7 3 12 1 4-2 9-6 13-12zm-37 0l-5 8-8-6 44-65 8 5-16 24c4-2 7-3 11-3 3 0 6 1 9 3 6 4 9 10 9 17 1 7-2 14-7 22-6 8-12 14-18 16-7 2-13 2-19-2-3-2-5-5-6-8-2-3-2-7-2-11zm44 40l32-70 7 5-28 59 45-48 8 5-27 60 44-49 7 5-54 56-7-5 27-61-46 49-8-6z" class="fil2"/>
  <path d="m-5690 903l91-61 166 249-91 61-166-249z" class="fil41"/>
  <path d="m-5754 709l77 67 78 66-46 31-45 30-32-97-32-97z" class="fil1 str2"/>
  <path d="m-5663 915l64-42 6 10-36 58 52-34 6 7-64 43-6-10 35-59-52 35-5-8zm39 59l57-54 5 8-49 44 60-28 5 8-48 45 59-28 5 8-71 31-5-8 49-46-61 28-6-8zm82 69c6-4 10-8 12-13 2-4 2-8-1-12-2-4-6-6-11-6s-10 2-16 6-10 9-12 13-2 8 1 13c3 3 6 5 11 5s11-2 16-6zm-33-14l-8 5-5-8 65-43 6 8-24 16c4-1 8 0 11 1s5 4 7 7c4 5 5 12 3 18-3 7-8 13-16 18-8 6-16 8-23 8s-12-3-16-9c-2-3-3-7-3-10s1-7 3-11zm23 51l63-42 7 10-36 58 52-34 5 7-64 43-6-10 36-59-52 35-5-8z" class="fil2"/>
  <path d="m-4793 508l107-21 58 293-107 22-58-294z" class="fil42"/>
  <path d="m-4778 305l46 91 46 91-54 11-53 10 7-101 8-102z" class="fil1 str2"/>
  <path d="m-4767 558l74-15 3 12-56 41 61-13 2 9-75 15-2-11 56-41-62 12-1-9zm50 100c7-1 12-4 15-7 4-4 5-7 4-12s-3-8-8-10c-4-2-10-2-17 0-7 1-13 3-16 7-3 3-5 7-4 12 1 4 4 8 8 9 5 2 11 2 18 1zm-26-26l-9 2-2-9 77-16 2 10-28 5c4 2 7 4 9 6 3 2 4 5 5 9 1 7 0 13-5 18s-12 9-21 11c-10 2-18 1-24-2-7-3-11-8-12-15-1-3 0-7 1-10s4-6 7-9zm2 60l73-28 1 9-61 22 65-2 2 9-61 24 65-4 2 9-78 2-1-9 62-24-67 2-2-10z" class="fil2"/>
   <path d="m-4292 1278v1682h84v-1682z" class="fil2"/>
   <path d="m-4250 795l-255 510h510l-255-510z" class="fil2"/>
   <path d="m-3873 991l-391 1966 28 6 391-1966z" class="fil2"/>
   <path d="m-3828 836l-116 150 167 33-51-183z" class="fil2"/>
   <path d="m-3496 1103l-767 1852 26 10 767-1852z" class="fil2"/>
   <path d="m-3421 959l-143 125 156 65-13-190z" class="fil2"/>
   <path d="m-3148 1285l-1114 1667 24 16 1113-1667z" class="fil2"/>
   <path d="m-3047 1160l-165 93 141 95 24-188z" class="fil2"/>
   <path d="m-2843 1533l-1417 1417 20 20 1417-1417z" class="fil2"/>
   <path d="m-2719 1429l-180 60 120 120 60-180z" class="fil2"/>
   <path d="m-2591 1835l-1667 1113 16 24 1667-1114z" class="fil2"/>
   <path d="m-2450 1757l-188 24 95 141 93-165z" class="fil2"/>
   <path d="m-2403 2180l-1852 767 10 26 1852-767z" class="fil2"/>
   <path d="m-2249 2131l-189-13 64 157 125-144z" class="fil2"/>
   <path d="m-2287 2555l-1966 391 6 28 1966-391z" class="fil2"/>
   <path d="m-2126 2538l-183-51 33 167 150-116z" class="fil2"/>
   <path d="m-2246 2946h-2004v28h2004z" class="fil2"/>
   <path d="m-2085 2960l-170-85v170l170-85z" class="fil2"/>
   <path d="m-2281 3337l-1966-391-6 28 1966 391z" class="fil2"/>
   <path d="m-2126 3382l-150-116-33 167 183-51z" class="fil2"/>
   <path d="m-2393 3714l-1852-767-10 26 1852 767z" class="fil2"/>
   <path d="m-2249 3789l-125-143-65 156 190-13z" class="fil2"/>
   <path d="m-2575 4062l-1667-1114-16 24 1667 1113z" class="fil2"/>
   <path d="m-2450 4163l-93-165-95 141 188 24z" class="fil2"/>
   <path d="m-2823 4367l-1417-1417-20 20 1417 1417z" class="fil2"/>
   <path d="m-2719 4491l-60-180-120 120 180 60z" class="fil2"/>
   <path d="m-3125 4619l-1113-1667-24 16 1114 1667z" class="fil2"/>
   <path d="m-3047 4760l-24-188-141 95 165 93z" class="fil2"/>
   <path d="m-3470 4807l-767-1852-26 10 767 1852z" class="fil2"/>
   <path d="m-3421 4961l13-189-157 64 144 125z" class="fil2"/>
   <path d="m-3845 4923l-391-1966-28 6 391 1966z" class="fil2"/>
   <path d="m-3828 5084l51-183-167 33 116 150z" class="fil2"/>
   <path d="m-4236 4964v-2004h-28v2004z" class="fil2"/>
   <path d="m-4250 5125l85-170h-170l85 170z" class="fil2"/>
   <path d="m-4627 4929l391-1966-28-6-391 1966z" class="fil2"/>
   <path d="m-4672 5084l116-150-167-33 51 183z" class="fil2"/>
   <path d="m-5004 4817l767-1852-26-10-767 1852z" class="fil2"/>
   <path d="m-5079 4961l143-125-156-64 13 189z" class="fil2"/>
   <path d="m-5352 4635l1114-1667-24-16-1113 1667z" class="fil2"/>
   <path d="m-5453 4760l165-93-141-95-24 188z" class="fil2"/>
   <path d="m-5657 4387l1417-1417-20-20-1417 1417z" class="fil2"/>
   <path d="m-5781 4491l180-60-120-120-60 180z" class="fil2"/>
   <path d="m-5909 4085l1667-1113-16-24-1667 1114z" class="fil2"/>
   <path d="m-6050 4163l188-24-95-141-93 165z" class="fil2"/>
   <path d="m-6097 3740l1852-767-10-26-1852 767z" class="fil2"/>
   <path d="m-6251 3789l189 13-64-157-125 144z" class="fil2"/>
   <path d="m-6213 3365l1966-391-6-28-1966 391z" class="fil2"/>
   <path d="m-6374 3382l183 51-33-167-150 116z" class="fil2"/>
   <path d="m-6254 2974h2004v-28h-2004z" class="fil2"/>
   <path d="m-6415 2960l170 85v-170l-170 85z" class="fil2"/>
   <path d="m-6219 2583l1966 391 6-28-1966-391z" class="fil2"/>
   <path d="m-6374 2538l150 116 33-167-183 51z" class="fil2"/>
   <path d="m-6107 2206l1852 767 10-26-1852-767z" class="fil2"/>
   <path d="m-6251 2131l125 143 64-156-189 13z" class="fil2"/>
   <path d="m-5925 1858l1667 1114 16-24-1667-1113z" class="fil2"/>
   <path d="m-6050 1757l93 165 95-141-188-24z" class="fil2"/>
   <path d="m-5677 1553l1417 1417 20-20-1417-1417z" class="fil2"/>
   <path d="m-5781 1429l60 180 120-120-180-60z" class="fil2"/>
   <path d="m-5375 1301l1113 1667 24-16-1114-1667z" class="fil2"/>
   <path d="m-5453 1160l24 188 141-95-165-93z" class="fil2"/>
   <path d="m-5030 1113l767 1852 26-10-767-1852z" class="fil2"/>
   <path d="m-5079 959l-13 189 157-64-144-125z" class="fil2"/>
   <path d="m-4655 997l391 1966 28-6-391-1966z" class="fil2"/>
   <path d="m-4672 836l-51 183 167-33-116-150z" class="fil2"/>
  <path d="m-4004 1035l263 53-31 156-263-52 31-157z" class="fil1 str2"/>
  <path d="m-3633 1120l248 103-61 147-248-102 61-148z" class="fil1 str2"/>
  <path d="m-3286 1276l223 149-89 133-223-149 89-133z" class="fil1 str2"/>
  <path d="m-2976 1496l190 190-113 113-190-190 113-113z" class="fil1 str2"/>
  <path d="m-2715 1773l149 223-133 89-149-223 133-89z" class="fil1 str2"/>
  <path d="m-2513 2095l103 248-148 61-102-248 147-61z" class="fil1 str2"/>
  <path d="m-2378 2451l53 263-157 31-52-263 156-31z" class="fil1 str2"/>
  <path d="m-2314 2826v268h-160v-268h160z" class="fil1 str2"/>
  <path d="m-2325 3206l-53 263-156-31 52-263 157 31z" class="fil1 str2"/>
  <path d="m-2410 3577l-103 248-147-61 102-248 148 61z" class="fil1 str2"/>
  <path d="m-2566 3924l-149 223-133-89 149-223 133 89z" class="fil1 str2"/>
  <path d="m-2786 4234l-190 190-113-113 190-190 113 113z" class="fil1 str2"/>
  <path d="m-3063 4495l-223 149-89-133 223-149 89 133z" class="fil1 str2"/>
  <path d="m-3385 4697l-248 103-61-148 248-102 61 147z" class="fil1 str2"/>
  <path d="m-3741 4832l-263 53-31-157 263-52 31 156z" class="fil1 str2"/>
  <path d="m-4116 4896h-268v-160h268v160z" class="fil1 str2"/>
  <path d="m-4496 4885l-263-53 31-156 263 52-31 157z" class="fil1 str2"/>
  <path d="m-4867 4800l-248-103 61-147 248 102-61 148z" class="fil1 str2"/>
  <path d="m-5214 4644l-223-149 89-133 223 149-89 133z" class="fil1 str2"/>
  <path d="m-5524 4424l-190-190 113-113 190 190-113 113z" class="fil1 str2"/>
  <path d="m-5785 4147l-149-223 133-89 149 223-133 89z" class="fil1 str2"/>
  <path d="m-5987 3825l-103-248 148-61 102 248-147 61z" class="fil1 str2"/>
  <path d="m-6122 3469l-53-263 157-31 52 263-156 31z" class="fil1 str2"/>
  <path d="m-6186 3094v-268h160v268h-160z" class="fil1 str2"/>
  <path d="m-6175 2714l53-263 156 31-52 263-157-31z" class="fil1 str2"/>
  <path d="m-6090 2343l103-248 147 61-102 248-148-61z" class="fil1 str2"/>
  <path d="m-5934 1996l149-223 133 89-149 223-133-89z" class="fil1 str2"/>
  <path d="m-5714 1686l190-190 113 113-190 190-113-113z" class="fil1 str2"/>
  <path d="m-5437 1425l223-149 89 133-223 149-89-133z" class="fil1 str2"/>
  <path d="m-5115 1223l248-103 61 148-248 102-61-147z" class="fil1 str2"/>
  <path d="m-4759 1088l263-53 31 157-263 52-31-156z" class="fil1 str2"/>
  <path d="m-4254 1077h-56v-33h2c22 0 37-3 46-9s15-17 16-32h38v233h-46v-159z" class="fil1"/>
  <path d="m-3934 1188c3-11 7-20 14-27 7-6 17-12 33-16l10-4c7-2 12-4 15-8 4-3 6-7 7-13s0-11-3-15c-4-5-9-8-16-9-7-2-13 0-17 3-5 4-9 10-10 19l-1 1-14-3v-2c2-12 8-21 16-27 8-5 18-7 30-5 11 3 19 8 25 15 6 8 7 17 5 27-1 8-5 14-10 19s-12 9-21 12l-11 3c-10 2-17 5-22 8s-8 7-11 12l62 12-3 14-78-16z" class="fil2"/>
  <path d="m-3581 1250l14 6c-3 8-4 14-1 20 2 6 6 10 14 13 7 3 13 4 18 2 6-2 10-6 13-13 3-6 3-11 0-16s-7-9-15-12c-1-1-2-1-3-2-1 0-2-1-4-1l5-12c1 0 2 1 3 1s2 1 3 1c7 3 12 4 17 3 4-2 8-5 10-11 2-5 3-10 1-14s-7-8-13-10c-6-3-12-4-17-1-6 2-10 7-13 14l-14-5 1-1c4-11 11-18 20-21 8-4 18-4 28 1 11 4 18 10 22 18s4 16 0 25c-2 5-5 9-9 12-4 2-8 4-13 4 4 4 7 9 8 15 2 6 1 12-2 18-4 11-11 17-21 21-10 3-20 2-32-3-11-5-18-12-22-21s-3-19 1-30l1-1z" class="fil2"/>
  <path d="m-3246 1416l31 21 28-44-59 23zm8 56l15-24-42-28 8-13 81-30 13 8-40 60 14 9-7 11-14-9-16 24-12-8z" class="fil2"/>
  <path d="m-2982 1641l11 11c-4 5-5 10-5 15 1 5 3 10 8 15s11 8 18 8 13-3 18-8c6-6 9-12 9-19 0-6-3-12-9-18-3-3-6-5-10-7-4-1-8-1-13-1l-9-9 50-37 43 44-9 9-36-36-26 19c4 0 8 1 11 3 4 2 7 4 10 8 9 8 13 17 13 27s-4 19-12 28c-8 8-18 12-29 12s-20-4-29-13c-8-8-12-16-13-26 0-9 3-18 9-25z" class="fil2"/>
  <path d="m-2708 1966c6-4 10-9 12-15 1-6 0-12-4-18s-9-10-15-11-13 1-19 5c-7 4-11 9-12 15-2 6 0 12 4 19 4 5 9 9 15 10s13-1 19-5zm49-15l-8-12c4-4 7-9 8-13 1-5-1-10-4-15-5-7-11-11-20-11-8 0-18 4-30 11 5 1 10 2 14 5s8 6 11 11c7 9 9 19 6 28-2 10-7 18-17 24-10 7-19 9-29 7s-19-8-25-18c-8-11-9-23-6-34 4-11 14-22 28-31 18-12 33-17 47-17 13 0 24 6 32 17 6 9 8 18 7 27-1 8-6 15-14 21z" class="fil2"/>
  <path d="m-2595 2255c18-5 36-7 54-5 18 1 36 5 55 12l-24-59 14-5 30 73-13 5c-18-6-36-10-54-11-19-1-37 1-55 5l-7-15z" class="fil2"/>
  <path d="m-2404 2577c-6 1-10 4-12 8-3 4-4 10-2 15 1 6 3 11 7 14s9 4 15 3c5-2 9-4 11-8 3-4 3-10 2-16s-4-10-8-13c-3-3-8-4-13-3zm-52 7c-7 1-12 5-15 9-3 5-4 12-3 19 2 7 5 12 10 16 5 3 11 4 18 3 6-2 11-5 14-10 2-5 3-11 2-18-2-7-5-13-9-16-5-3-11-4-17-3zm29-3c1-5 4-10 7-13s8-6 14-7c8-1 16 0 23 6 7 5 11 13 13 24 2 10 1 19-3 27-4 7-10 12-19 14-6 1-11 1-15-1-5-2-9-5-12-9-1 6-4 12-8 16s-10 7-17 8c-10 3-20 1-28-5s-13-15-15-26c-3-12-1-23 4-31s13-14 24-16c7-1 13-1 18 1 6 3 10 6 14 12z" class="fil2"/>
  <path d="m-2373 2940c-7 0-13 2-18 6-4 5-7 10-7 17 0 8 3 13 7 18 4 4 11 6 18 6 8 0 14-2 19-6 4-5 7-10 7-18 0-7-3-12-7-16-5-5-11-7-19-7zm-49-15v15c-6 1-10 3-14 6-3 4-5 9-5 15 0 9 4 15 11 20 7 4 17 7 31 8-4-4-7-8-9-12-2-5-3-10-3-16 0-11 3-20 10-27 7-6 16-10 28-10 11 0 21 4 28 11s11 17 11 28c0 14-5 24-14 31-10 8-23 11-41 11-21 0-37-4-48-11-11-8-17-19-17-33 0-11 3-20 9-26 5-7 13-10 23-10z" class="fil2"/>
  <path d="m-2476 3264l81 16 5-26 12 2c-2 10-2 17 1 23 2 5 7 9 14 12l-2 11-114-23 3-15z" class="fil2"/>
  <path d="m-2436 3353c-16-4-28-4-36-2-8 3-12 8-14 16s1 15 7 20 18 10 33 13c16 3 28 4 36 1 8-2 13-7 14-15 2-9 0-15-7-21-6-5-17-9-33-12zm3-16c19 4 33 10 42 19s12 19 9 32-10 22-21 27c-11 4-26 5-46 1-19-4-33-11-42-19-8-9-11-20-8-33 2-12 9-21 20-26 12-4 27-5 46-1z" class="fil2"/>
  <path d="m-2570 3604l76 32 11-25 11 5c-4 9-5 17-4 22 1 6 5 11 12 15l-4 10-108-45 6-14z" class="fil2"/>
  <path d="m-2608 3697l76 32 10-25 11 5c-4 9-5 16-3 22 1 6 5 11 12 15l-5 10-107-45 6-14z" class="fil2"/>
  <path d="m-2727 3920l69 45 15-22 9 6c-5 9-7 16-7 22s3 11 9 16l-6 10-97-65 8-12z" class="fil2"/>
  <path d="m-2762 3972c10 6 16 14 20 23 3 8 4 20 3 36l-1 11c0 7 0 13 2 17 2 5 5 8 9 11 6 4 11 5 16 3 6-1 11-5 14-11 4-6 5-12 4-18-2-6-7-11-14-16h-1l9-13 2 1c10 7 16 15 18 25s0 20-7 30c-6 9-14 15-23 17-9 3-18 1-26-5-7-4-12-10-14-16-3-7-4-15-3-25l1-11c1-10 1-18 0-23-1-6-3-11-6-14l-35 52-12-8 44-66z" class="fil2"/>
  <path d="m-2944 4198l59 59 19-20 8 9c-7 7-11 13-12 19s1 12 6 18l-8 8-82-82 10-11z" class="fil2"/>
  <path d="m-2961 4267l-11 11c-6-5-12-8-18-8-7-1-12 2-18 8-5 5-8 11-8 17-1 6 2 11 7 16 4 5 10 7 15 6 6 0 11-3 17-9l2-2c1-1 2-2 3-4l10 9-3 3-2 2c-5 5-8 10-9 15 0 4 2 9 6 13s9 6 13 6c5 0 10-3 14-7 6-5 8-11 8-17 0-5-3-11-9-17l10-10 1 1c8 8 12 16 12 26 0 9-3 18-11 26-9 8-17 13-26 13-8 1-16-2-23-9-4-4-6-8-7-13-1-4-1-9 1-14-6 3-12 4-17 3-6-1-12-4-17-9-7-8-11-17-10-27 0-11 5-20 14-29 8-8 18-13 27-13 10 0 20 4 28 13h1z" class="fil2"/>
  <path d="m-3211 4429l46 69 23-15 6 10c-8 5-13 11-15 17-2 5-2 11 2 18l-10 7-64-97 12-9z" class="fil2"/>
  <path d="m-3250 4506l-31 21 29 43 2-64zm-54-14l16 24 42-29 8 13-3 86-13 8-39-59-14 9-7-11 13-9-15-24 12-8z" class="fil2"/>
  <path d="m-3517 4604l31 76 25-10 4 11c-9 4-15 8-18 13-4 5-4 11-2 19l-11 4-43-108 14-5z" class="fil2"/>
  <path d="m-3563 4656l-14 5c-3-5-8-8-13-10-5-1-10-1-16 1-7 3-12 8-15 14-2 6-2 13 1 20s7 12 13 15c6 2 13 2 20-1 4-2 8-4 11-7 2-3 4-7 6-11l12-5 15 60-58 23-5-12 47-19-7-31c-2 3-4 6-7 9s-7 5-11 6c-11 5-21 5-31 1-9-4-16-11-20-21-5-12-5-22 0-32 4-10 12-17 23-22 10-4 20-4 29-1s15 9 20 18z" class="fil2"/>
  <path d="m-3852 4716l17 80 26-5 3 11c-10 3-17 6-21 10-4 5-6 11-5 19l-11 2-24-114 15-3z" class="fil2"/>
  <path d="m-3970 4775c1 8 4 13 9 17 5 3 11 4 18 3s13-5 16-10 4-12 3-19c-2-8-5-13-10-17s-12-5-19-3c-6 1-11 5-15 10-3 5-4 12-2 19zm-5 52l15-4c1 6 4 10 8 13 5 2 10 3 16 1 8-1 14-6 17-14 3-7 3-18 1-32-2 5-5 8-10 12-4 3-9 5-14 6-11 2-20 0-29-5-8-6-13-14-15-25-2-12-1-21 5-30 6-8 14-14 26-16 13-3 24 0 33 7 9 8 15 21 19 38 4 20 3 37-2 49-5 13-15 21-28 24-11 2-20 1-27-3-8-5-13-12-15-21z" class="fil2"/>
  <path d="m-4202 4759v83h27v11c-10 1-17 2-22 6-5 3-8 9-9 17h-11v-117h15z" class="fil2"/>
  <path d="m-4282 4759c-3 19-8 36-15 52-8 16-19 32-33 46h64v16h-80v-14c14-15 24-30 32-47 8-16 13-34 15-53h17z" class="fil2"/>
  <path d="m-4554 4734l-16 81 26 5-2 12c-10-2-18-2-23 0-5 3-9 8-12 15l-11-2 23-114 15 3z" class="fil2"/>
  <path d="m-4653 4801c2-5 1-10-2-14s-8-6-14-8c-6-1-11 0-15 2-4 3-7 7-8 12-1 6 0 10 3 14s7 7 13 8 11 0 16-2c4-2 6-6 7-12zm14-50c2-7 1-13-2-17-4-5-9-8-16-10-7-1-14 0-19 3s-8 8-9 15c-2 6 0 12 3 16 3 5 9 8 16 9 7 2 13 1 18-2s8-7 9-14zm-8 28c4 3 7 7 9 12 2 4 2 9 1 15-2 8-7 15-14 19-8 4-17 5-27 3-11-2-19-7-24-13-6-7-7-15-6-24 2-5 4-10 7-13 3-4 8-6 13-7-6-4-10-9-12-14s-2-12-1-19c2-11 8-19 16-24s19-6 31-4c12 3 20 8 26 16s7 17 5 28c-1 7-4 13-8 17s-10 7-16 8z" class="fil2"/>
  <path d="m-4894 4640l-32 76 25 11-5 11c-9-4-17-5-22-4-6 1-11 5-15 12l-10-4 45-108 14 6z" class="fil2"/>
  <path d="m-4997 4682c3-7 3-13 1-19s-6-10-12-12c-7-3-14-4-19-1-6 2-10 7-13 14s-4 14-2 19c3 6 7 11 14 14 6 2 12 2 18 0 6-3 10-8 13-15zm33-39l-14-6c2-6 2-11 0-15s-6-8-12-10c-8-4-15-3-22 2-7 4-13 13-19 26 4-3 9-4 14-5 5 0 11 1 16 4 10 4 17 11 20 20 4 9 3 19-1 29-5 11-12 18-21 22-10 4-20 3-30-1-13-6-21-14-24-25-2-12-1-26 6-42 9-19 18-33 30-40 11-7 24-8 37-3 10 5 17 11 20 19 4 7 4 16 0 25z" class="fil2"/>
  <path d="m-5178 4504h-1c-6 10-13 16-22 20-9 3-21 4-37 3l-11-1c-7-1-12 0-17 2-4 1-8 5-11 9-3 5-4 10-3 16 2 5 5 10 11 14s12 5 18 3 11-6 16-13l1-1 12 8-1 2c-7 10-15 17-25 19s-19 0-29-7c-10-6-16-14-18-23s-1-18 5-27c4-7 10-11 17-14s15-3 24-2l11 1c10 1 18 1 24 0 5-1 10-3 14-7l-53-34 8-12 67 44z" class="fil2"/>
  <path d="m-5307 4486c9-13 14-24 15-32 1-9-2-15-9-20-7-4-14-5-22-1-7 4-15 13-24 26-9 14-14 25-15 33 0 8 3 15 10 19 7 5 14 5 21 1s15-13 24-26zm14 9c-11 16-22 27-34 31-11 5-22 4-33-3-11-8-17-17-17-30 0-12 6-26 17-43 11-16 22-26 33-31s22-4 33 4c11 7 17 17 17 29s-6 26-16 43z" class="fil2"/>
  <path d="m-5462 4293c-8 8-17 13-26 15s-21 0-36-4l-11-3c-7-2-12-3-17-2s-9 3-13 7-6 9-6 15 3 11 8 16 11 7 17 7c6-1 12-4 18-10l1-1 11 11-2 1c-9 9-18 13-28 13-10 1-19-4-27-12s-13-17-13-26c-1-10 3-18 10-25 6-6 12-9 19-11 7-1 16 0 25 3l10 3c10 3 18 5 23 5 6 0 11-1 15-4l-44-44 10-10 56 56z" class="fil2"/>
  <path d="m-5559 4195l-59 59 20 19-9 8c-7-7-13-11-19-12s-12 1-18 6l-8-8 82-82 11 10z" class="fil2"/>
  <path d="m-5698 4031h-1c-9 6-19 10-28 9-9 0-21-4-35-11l-10-5c-6-4-11-5-16-5s-10 1-14 4c-5 3-8 8-9 14-1 5 1 11 5 17 3 6 8 9 15 10 6 0 13-2 19-6l2-1 8 13-2 1c-10 7-20 9-30 7s-18-7-24-17c-7-10-9-19-8-29 2-9 7-17 15-22 7-5 14-7 21-7 8 1 15 3 24 8l9 5c9 5 17 8 22 9 6 2 11 1 15 0l-34-53 12-7 44 66z" class="fil2"/>
  <path d="m-5754 3947l-1 1c-9 6-19 9-28 9s-21-4-35-12l-10-5c-6-3-11-5-16-5s-9 2-14 5-8 8-9 13c-1 6 1 11 5 17s9 9 15 10 13-1 20-6h1l8 12-2 2c-10 6-20 9-30 7-9-2-18-8-24-18-6-9-9-19-7-28 1-9 6-17 15-23 6-4 13-6 20-6 8 0 16 2 24 7l9 6c10 5 17 8 22 9 6 1 11 1 16-1l-35-52 12-8 44 66z" class="fil2"/>
  <path d="m-5879 3728h-1c-11 4-20 5-29 3-10-2-20-8-32-18l-9-7c-5-4-10-7-15-8s-10 0-15 2-9 6-11 11-1 11 1 18c3 6 7 10 13 12s13 2 21-1l1-1 5 14-2 1c-11 5-21 5-31 1-9-4-16-11-20-22-4-10-5-20-2-29 4-9 10-15 20-19 7-3 14-4 21-2 8 1 15 5 22 11l8 8c8 6 15 11 20 13s10 3 15 3l-24-59 14-5 30 74z" class="fil2"/>
  <path d="m-5951 3650l-6-14c8-4 13-8 15-14 3-5 3-12 0-19s-7-12-13-14c-5-3-11-3-18 0-6 2-10 6-11 12-2 5-1 11 2 18 0 1 0 2 1 4 0 1 1 2 2 4l-12 5c-1-1-1-2-1-3-1-1-1-2-1-3-3-7-7-12-11-14s-9-2-14 0c-6 2-9 6-11 10s-1 10 1 16c3 7 7 11 12 13 6 2 12 1 20-2l5 14-1 1c-10 4-20 4-29 1-8-4-15-11-19-21-5-11-5-21-3-29 3-8 9-14 18-18 5-2 10-2 15-2 4 1 8 3 12 7 0-6 1-12 5-17 3-5 8-8 14-11 11-4 20-4 29 0 9 5 16 13 21 25 5 11 5 21 1 30s-11 16-22 20l-1 1z" class="fil2"/>
  <path d="m-5998 3395h-1c-11 2-21 2-29-2-9-4-18-12-28-24l-8-8c-4-5-8-9-13-11-4-2-9-2-14-1-6 1-11 4-14 9-2 5-3 11-2 18 2 7 5 12 11 15 5 3 12 3 20 2l1-1 3 15-2 1c-12 2-22 1-30-5-9-5-14-14-16-25-3-11-1-21 3-29 5-8 13-13 23-16 8-1 15 0 22 2 6 3 13 8 19 16l6 8c7 8 13 14 17 17 5 4 10 5 15 6l-13-62 14-3 16 78z" class="fil2"/>
  <path d="m-6061 3292l-8-36-50 11 58 25zm33-44l-28 6 11 49-15 3-78-35-3-15 69-14-3-17 13-2 3 16 29-6 2 15z" class="fil2"/>
  <path d="m-6049 3046h-1c-11 0-21-3-28-8-8-6-16-15-23-29l-6-10c-3-6-6-10-10-13s-9-4-15-4-11 2-14 6c-4 5-6 10-6 17s2 13 7 17 11 6 20 6h1v15h-2c-12 0-22-3-29-10s-11-17-11-29c0-11 3-20 10-27 6-7 14-11 25-11 8 0 15 2 21 6 6 5 11 11 15 19l5 10c5 9 9 16 13 20s9 7 13 8v-63h15v80z" class="fil2"/>
  <path d="m-6080 2946v-15c7-1 11-4 15-8 3-4 5-9 5-16s-3-14-7-18c-5-5-11-7-19-7s-14 2-19 7c-4 4-7 11-7 18 0 5 1 9 3 13 2 3 4 7 8 9v14l-62-9v-62h14v50l31 5c-2-3-4-6-5-10-2-3-2-8-2-12 0-12 3-21 10-29 7-7 17-11 28-11 12 0 22 4 30 12 7 8 11 18 11 30 0 11-3 20-9 27s-14 11-25 12z" class="fil2"/>
  <path d="m-6031 2693h-1c-11-2-20-7-26-14-7-6-12-17-17-32l-3-11c-2-7-5-11-8-15-4-3-8-6-13-7-6-1-11 0-16 3-5 4-8 9-9 16s0 13 4 18c4 4 10 8 18 9l1 1-3 15-2-1c-12-2-21-8-26-16-6-8-8-18-5-30 2-11 7-19 15-25 7-6 16-7 26-5 8 1 14 5 19 10s9 12 12 22l3 10c3 10 6 18 9 22 3 5 6 9 11 11l12-62 15 3-16 78z" class="fil2"/>
  <path d="m-6033 2523c-8-1-14 0-19 3s-9 8-10 15c-2 7-1 13 3 19 3 5 9 8 16 10 8 1 14 0 20-3 5-3 9-8 10-16 1-6 0-12-4-18-3-5-9-8-16-10zm-45-24l-3 15c-7-1-11 0-15 3s-7 7-8 14c-2 8 1 15 6 21 6 6 16 10 30 14-4-4-6-9-7-14s-1-10 0-16c2-11 7-19 15-24 9-5 18-7 30-4 11 2 19 7 25 16 6 8 7 18 5 30-3 13-9 22-20 28-11 5-25 6-42 2-20-4-35-11-45-21s-13-21-10-35c2-11 7-19 13-24 7-5 15-7 26-5z" class="fil2"/>
  <path d="m-5945 2351l-1-1c-10-4-18-10-23-18s-8-20-10-35l-1-12c0-6-2-12-5-16-2-4-6-7-11-9-6-2-11-2-16 0s-9 7-12 13c-3 7-3 13 0 18 3 6 8 10 16 14h1l-6 14-2-1c-11-5-19-12-22-21-4-9-4-19 1-30 4-10 11-18 19-22 9-4 18-4 27 0 8 4 13 8 17 14s7 14 7 24l1 11c1 10 2 18 4 23s5 10 9 13l25-58 13 5-31 74z" class="fil2"/>
  <path d="m-5900 2242c-16-10-30-21-42-35-11-13-21-29-29-47l-25 58-14-6 31-73 12 6c9 17 19 33 31 47 12 13 26 25 43 34l-7 16z" class="fil2"/>
  <path d="m-5794 2032v-1c-10-6-16-13-20-22-3-9-4-21-3-37l1-11c1-7 0-12-2-17-1-4-5-8-9-11-5-3-10-4-16-3-5 2-10 5-14 11s-5 12-3 18 6 11 13 16l1 1-8 12-2-1c-10-7-17-15-19-25s0-19 7-29c6-10 14-16 23-18s18-1 27 5c7 4 11 10 14 17s3 15 2 24l-1 11c-1 10-1 18 0 24 1 5 3 10 7 14l34-53 12 8-44 67z" class="fil2"/>
  <path d="m-5798 1884c5 3 10 4 14 3 5-1 9-5 13-10 3-5 4-10 4-15-1-5-4-9-9-12-4-3-9-4-13-2-5 1-9 4-13 9-3 6-4 10-4 15 1 5 4 9 8 12zm41 32c6 4 12 5 18 4 6-2 11-5 15-12 4-6 5-12 4-17-1-6-4-11-10-15s-11-5-17-3c-5 1-10 5-14 11s-6 12-5 18c1 5 4 10 9 14zm-22-19c-5 3-9 5-14 4-5 0-10-1-15-5-7-4-11-11-12-20-1-8 1-17 7-26s13-15 22-17c8-3 16-1 23 4 5 3 8 7 10 11s3 9 2 15c5-4 11-6 17-6s12 2 18 6c9 6 14 14 16 23 2 10-1 20-8 30s-15 17-24 19c-10 2-19 0-28-6-6-4-10-8-13-14-2-5-2-11-1-18z" class="fil2"/>
  <path d="m-5583 1748c-8-8-13-17-15-26s0-21 4-36l3-11c2-7 3-12 2-17s-3-9-7-13-9-6-15-6-11 3-16 8-7 11-7 17c1 6 4 12 10 18l1 1-11 11-1-2c-9-9-13-18-13-28-1-10 4-19 12-27s17-13 26-13c10-1 18 3 25 10 6 6 9 12 11 19 1 7 0 16-3 25l-3 10c-3 10-5 18-5 23 0 6 1 11 4 15l44-44 10 10-56 56z" class="fil2"/>
  <path d="m-5556 1611c5 5 11 8 17 8 6 1 12-2 17-6 5-6 8-12 8-18s-3-12-9-17c-5-6-11-8-17-9-7 0-12 3-18 8-4 5-7 10-6 17 0 6 3 12 8 17zm24 46l11-11c4 4 9 6 14 5 5 0 9-2 14-7 6-6 8-13 6-21-1-8-7-17-17-28 1 5 1 11-1 15-2 5-5 10-9 14-8 7-16 11-26 11s-19-4-27-12-12-18-12-28 4-19 12-28c10-9 20-13 32-12 12 2 24 9 36 21 15 15 24 29 26 43 3 13-1 25-11 35-7 8-16 12-24 12-9 1-17-2-24-9z" class="fil2"/>
  <path d="m-5342 1482l13-8c4 6 10 10 16 12 6 1 12 0 19-5 6-4 10-9 11-15 2-5 0-11-4-17-3-6-8-9-13-9-6-1-12 1-18 5-1 1-2 1-3 2s-2 2-4 3l-7-11c1-1 2-1 3-2 1 0 1-1 2-1 6-5 10-9 12-13 1-5 0-9-3-15-4-4-8-7-12-8-5-1-10 1-15 4-7 5-10 9-11 15s1 12 5 18l-12 9-1-1c-6-10-8-19-6-28 2-10 7-17 16-23 10-7 19-10 28-9 8 1 15 6 21 14 3 5 4 9 5 14 0 5-2 9-5 14 7-2 13-2 18 1 5 2 10 6 14 12 6 9 8 19 5 28-2 10-9 19-19 26-10 6-20 8-30 7-10-2-18-8-24-18l-1-1z" class="fil2"/>
  <path d="m-5255 1400c9 13 17 22 24 26 8 4 15 3 22-1 7-5 10-11 9-19-1-9-6-19-15-33-9-13-17-22-24-26s-14-4-21 1c-7 4-10 11-9 19 0 8 5 19 14 33zm-13 8c-11-16-16-30-16-42 0-13 5-23 16-30s22-8 34-4c11 5 22 16 33 32 11 17 16 31 16 43s-6 22-17 29-22 9-33 4-22-15-33-32z" class="fil2"/>
  <path d="m-5033 1297l15-5c3 7 7 12 13 15 6 2 12 2 19-1s12-7 15-12c2-6 2-12-1-18-2-6-6-10-11-12-6-2-12-1-19 2-1 0-2 1-3 1-1 1-3 1-5 2l-4-12c1 0 2-1 3-1s2-1 3-1c6-3 11-6 13-10 3-5 3-9 0-15-2-5-5-9-10-11-4-1-9-1-15 2-7 2-12 6-14 12-2 5-1 12 2 19l-14 6v-2c-4-10-5-20-1-28 3-9 10-16 21-20s20-5 28-2c8 2 14 8 18 17 2 5 3 10 2 15s-3 9-7 12c7 0 12 2 17 5s9 8 11 15c5 10 4 20 0 29-5 9-13 16-24 20-11 5-22 5-31 1-9-3-16-11-20-22l-1-1z" class="fil2"/>
  <path d="m-4890 1278l-31-76-25 10-4-11c9-4 15-8 18-14 3-5 4-11 2-18l10-5 44 108-14 6z" class="fil2"/>
  <path d="m-4694 1177l15-3c2 8 6 13 11 17 5 3 11 4 19 3 7-2 13-5 16-10 4-5 5-10 3-17-1-7-4-11-9-14s-11-3-19-2c-1 1-2 1-3 1s-3 1-5 1l-2-13h3c1 0 2 0 3-1 7-1 12-4 15-7 3-4 4-9 3-15-1-5-4-9-8-12-4-2-9-3-16-2-7 2-12 5-15 10s-3 11-2 19l-14 3-1-1c-2-11 0-21 5-29 5-7 13-13 24-15s21-1 28 3c8 4 13 11 15 20 1 6 0 11-1 15-2 5-5 8-9 11 6 1 12 4 16 8s7 9 8 16c2 11 0 21-6 29s-15 13-27 16c-12 2-22 1-30-5-9-5-14-14-16-25l-1-1z" class="fil2"/>
  <path d="m-4587 1192c-2-11-1-21 2-30 4-8 12-18 24-28l9-7c5-4 8-9 10-13 2-5 2-10 1-15-1-6-4-10-9-13s-11-4-17-2c-7 1-12 5-15 10-3 6-4 12-2 21v1l-15 3v-2c-3-12-1-23 4-31 6-8 14-14 26-16 11-2 20-1 29 4 8 5 13 12 15 22 2 8 1 15-2 22s-8 13-15 19l-9 7c-8 6-14 12-17 17-3 4-5 9-5 14l61-12 3 14-78 15z" class="fil2"/>
  <ellipse rx="2178" ry="2178" class="fil0 str0" cy="2960" cx="-4250"/>
</svg>
